{
	"additionalNodes": [],
	"additionalParameters": {
		"root": {
			"height": 170,
			"width": 231
		}
	},
	"inputs": [ {
		"command": "Variable",
		"name": "corridor"
	}, {
		"command": "Variable",
		"name": "price"
	}, {
		"command": "Variable",
		"name": "radius"
	} ],
	"outputs": [ {
		"name": "newUnit"
	} ],
	"properties": {
		"7y1ZEx7B7eEd69ZICQaledaJaSTffPlk": {
			"height": 193,
			"title": "reference",
			"width": 279,
			"x": 548,
			"y": 5
		},
		"K7R0qtm4OCxQ75chQEnA9dZHpuJsRQRK": {
			"height": 60,
			"title": "sequence",
			"width": 143,
			"x": 281,
			"y": 24
		},
		"TcNp8afNidln9cjsc5F6deJn51y4saBm": {
			"height": 94,
			"title": "store",
			"width": 170,
			"x": 551,
			"y": -96
		},
		"gCMO5cwoc6lAZPdzUu5dJZV1oJkg9lTj": {
			"height": 92,
			"title": "peter_guba_project_1.BuyUnit",
			"width": 255,
			"x": 551,
			"y": -185
		}
	},
	"roles": [ {
		"categories": [],
		"name": "Role 0"
	} ],
	"root": {
		"children": [ {
			"children": [],
			"id": "gCMO5cwoc6lAZPdzUu5dJZV1oJkg9lTj",
			"nodeType": "luaCommand",
			"parameters": [ {
				"name": "unitName",
				"value": "'armfark'"
			}, {
				"name": "price",
				"value": "price"
			}, {
				"name": "scriptName",
				"value": "peter_guba_project_1.BuyUnit"
			} ],
			"scriptName": "peter_guba_project_1.BuyUnit"
		}, {
			"children": [],
			"id": "TcNp8afNidln9cjsc5F6deJn51y4saBm",
			"nodeType": "luaCommand",
			"parameters": [ {
				"name": "var",
				"value": "newUnit"
			}, {
				"name": "value",
				"value": "GetNewUnit()"
			}, {
				"name": "scriptName",
				"value": "store"
			} ],
			"scriptName": "store"
		}, {
			"children": [],
			"id": "7y1ZEx7B7eEd69ZICQaledaJaSTffPlk",
			"nodeType": "reference",
			"parameters": [ {
				"name": "behaviourName",
				"value": "peter_guba_project_1.GetMetal"
			} ],
			"referenceInputs": [ {
				"name": "unit",
				"value": "newUnit"
			}, {
				"name": "x",
				"value": "corridor.x"
			}, {
				"name": "z",
				"value": "corridor.z"
			}, {
				"name": "radius",
				"value": "radius"
			} ],
			"referenceOutputs": []
		} ],
		"id": "K7R0qtm4OCxQ75chQEnA9dZHpuJsRQRK",
		"nodeType": "sequence",
		"parameters": []
	}
}