{
	"additionalNodes": [],
	"additionalParameters": {
		"root": {
			"height": 170,
			"width": 216
		}
	},
	"inputs": [ {
		"command": "Variable",
		"name": "unitName"
	}, {
		"command": "Variable",
		"name": "price"
	}, {
		"command": "Variable",
		"name": "count"
	} ],
	"outputs": [],
	"properties": {
		"16jomnkNQrNIZurKf723Y4FnJOHr6UbG": {
			"height": 54,
			"title": "success",
			"width": 132,
			"x": 989,
			"y": 153
		},
		"Kke5sStpldi5wGNepATP1kKVhr8pdi5s": {
			"height": 94,
			"title": "store",
			"width": 347,
			"x": 747,
			"y": -107
		},
		"Mxkc7Leb9MKiBdXWabUvjxb6Yv03oMck": {
			"height": 60,
			"title": "sequence",
			"width": 143,
			"x": 468,
			"y": 35
		},
		"O7mwQJXw3x0AhxxbXeWKbDD9UTXEzlnT": {
			"height": 60,
			"title": "repeat",
			"width": 131,
			"x": 282,
			"y": 37
		},
		"OgHyuLCU4UHcnq056wAPQRlM2duYTnCb": {
			"height": 90,
			"title": "luaCondition",
			"width": 194,
			"x": 699,
			"y": 64
		},
		"OgtlbbGVI2FHkpe1S3BvCKj4i6IW0X2r": {
			"height": 92,
			"title": "peter_guba_project_1.BuyUnit",
			"width": 255,
			"x": 1181,
			"y": -88
		},
		"QmqXXk7iHv6ChDxNLXLVOb5jfU7wLBoE": {
			"height": 72,
			"title": "wait",
			"width": 131,
			"x": 1183,
			"y": 0
		},
		"WFySSIQqrBzpYDzrGnG3hpUny9JaYGfK": {
			"height": 60,
			"title": "sequence",
			"width": 143,
			"x": 956,
			"y": 7
		},
		"o6CGu6Ln2XLyiX6mvOUipb2HfQ8apSNY": {
			"height": 94,
			"title": "store",
			"width": 420,
			"x": 1182,
			"y": 74
		}
	},
	"roles": [ {
		"categories": [],
		"name": "Role 0"
	} ],
	"root": {
		"children": [ {
			"children": [ {
				"children": [],
				"id": "Kke5sStpldi5wGNepATP1kKVhr8pdi5s",
				"nodeType": "luaCommand",
				"parameters": [ {
					"name": "var",
					"value": "unitCount"
				}, {
					"name": "value",
					"value": "GetNonNilCount(global[unitName], count)"
				}, {
					"name": "scriptName",
					"value": "store"
				} ],
				"scriptName": "store"
			}, {
				"children": [ {
					"children": [ {
						"children": [],
						"id": "OgtlbbGVI2FHkpe1S3BvCKj4i6IW0X2r",
						"nodeType": "luaCommand",
						"parameters": [ {
							"name": "unitName",
							"value": "unitName"
						}, {
							"name": "price",
							"value": "price"
						}, {
							"name": "scriptName",
							"value": "peter_guba_project_1.BuyUnit"
						} ],
						"scriptName": "peter_guba_project_1.BuyUnit"
					}, {
						"children": [],
						"id": "QmqXXk7iHv6ChDxNLXLVOb5jfU7wLBoE",
						"nodeType": "wait",
						"parameters": [ {
							"name": "time",
							"value": 1
						} ]
					}, {
						"children": [],
						"id": "o6CGu6Ln2XLyiX6mvOUipb2HfQ8apSNY",
						"nodeType": "luaCommand",
						"parameters": [ {
							"name": "var",
							"value": "global[unitName]"
						}, {
							"name": "value",
							"value": "UpdateUnitTable(global[unitName], count, unitName)"
						}, {
							"name": "scriptName",
							"value": "store"
						} ],
						"scriptName": "store"
					} ],
					"id": "WFySSIQqrBzpYDzrGnG3hpUny9JaYGfK",
					"nodeType": "sequence",
					"parameters": []
				}, {
					"children": [],
					"id": "16jomnkNQrNIZurKf723Y4FnJOHr6UbG",
					"nodeType": "success",
					"parameters": []
				} ],
				"id": "OgHyuLCU4UHcnq056wAPQRlM2duYTnCb",
				"nodeType": "luaCondition",
				"parameters": [ {
					"name": "expression",
					"value": "unitCount ~= count"
				}, {
					"name": "repeat",
					"value": "false"
				} ]
			} ],
			"id": "Mxkc7Leb9MKiBdXWabUvjxb6Yv03oMck",
			"nodeType": "sequence",
			"parameters": []
		} ],
		"id": "O7mwQJXw3x0AhxxbXeWKbDD9UTXEzlnT",
		"nodeType": "repeat",
		"parameters": []
	}
}