{
	"additionalNodes": [],
	"additionalParameters": {
		"root": {
			"height": 88,
			"width": 180
		}
	},
	"inputs": [],
	"outputs": [],
	"properties": {
		"0hqJX36orAV9wiMXWPOVaRc5M6bBwaDM": {
			"height": 60,
			"title": "sequence",
			"width": 143,
			"x": 689,
			"y": -59
		},
		"11SXFngtQG0DZGkWPtukFVe4QdJVDsn7": {
			"height": 94,
			"title": "store",
			"width": 255,
			"x": 928,
			"y": 126
		},
		"1TOqkuoU168Ty4tiv8e07rYPuwWQHAB6": {
			"height": 54,
			"title": "success",
			"width": 132,
			"x": 1969,
			"y": 1377
		},
		"23QrJf1H56NYTFpHGAuLUojh2M7cPmSA": {
			"height": 92,
			"title": "store",
			"width": 243,
			"x": 1974,
			"y": 568
		},
		"4HXlwMGyJptxgDwnxCIByYRptF3bVRd9": {
			"height": 94,
			"title": "store",
			"width": 257,
			"x": 941,
			"y": 322
		},
		"4XHgJYNBY8p4FmQhcgtLjfJW9XKDZVC5": {
			"height": 92,
			"title": "store",
			"width": 243,
			"x": 1960,
			"y": 287
		},
		"5YRKssFhKQiwXkPKiyksOxsEOKdUumtF": {
			"height": 54,
			"title": "success",
			"width": 132,
			"x": 1953,
			"y": 86
		},
		"7lbkVytr4RdfJtp8J6LbSO2Es72p0lEV": {
			"height": 60,
			"title": "repeat",
			"width": 131,
			"x": 530,
			"y": 513
		},
		"7rgOsVKO2DMRv8o6h4xvwgqTFaILzLw7": {
			"height": 60,
			"title": "repeat",
			"width": 131,
			"x": 518,
			"y": 231
		},
		"8JaMS93dtWTktaDe9BSRVTvRHdB9plL0": {
			"height": 94,
			"title": "store",
			"width": 257,
			"x": 933,
			"y": 1163
		},
		"8gcUjHWY6QnSmjCQcTuwXhhhmcJK94Sf": {
			"height": 92,
			"title": "store",
			"width": 243,
			"x": 1961,
			"y": 424
		},
		"AimSVrSaiclAAFzOOunH0YOzduC6l9X8": {
			"height": 90,
			"title": "luaCondition",
			"width": 322,
			"x": 1590,
			"y": 1657
		},
		"BqFUnOcvNRKNaaEQiqBy5zAlCZ77fRkH": {
			"height": 177,
			"title": "reference",
			"width": 289,
			"x": 1258,
			"y": 1231
		},
		"BsatTdmjCUVheXwSgoOvUBcJKSp9Tpth": {
			"height": 92,
			"title": "store",
			"width": 243,
			"x": 1960,
			"y": 689
		},
		"C7lT6z2d74E0ejlihphHxHHowfWZF0MS": {
			"height": 60,
			"title": "sequence",
			"width": 143,
			"x": 696,
			"y": 227
		},
		"Ce6GPV6xpedk1pEU0diQrtXjF6w7iJgr": {
			"height": 60,
			"title": "sequence",
			"width": 143,
			"x": 708,
			"y": 509
		},
		"DPtyPnt2SO0KJimxqrWwJ4wpl7r5bCSE": {
			"height": 90,
			"title": "luaCondition",
			"width": 322,
			"x": 1606,
			"y": 886
		},
		"Df6RKNmrD8I4u6VXuhjAuIEuTB70tTTd": {
			"height": 54,
			"title": "success",
			"width": 132,
			"x": 1976,
			"y": 778
		},
		"ECIOAWy9nfFtIbjjQau8dEuBU0nzzLiT": {
			"height": 92,
			"title": "store",
			"width": 243,
			"x": 1947,
			"y": 143
		},
		"EgfgHBOeEblQg2EsgWY9OJi3AJ51OiJL": {
			"height": 60,
			"title": "sequence",
			"width": 143,
			"x": 700,
			"y": 1350
		},
		"F2AFHGmmW2PRcHVHpsBpiPVqdmM6BFne": {
			"height": 60,
			"title": "sequence",
			"width": 143,
			"x": 704,
			"y": 1666
		},
		"H8m5XOBa9rExgGZWodfLt2uj1WP5cSzo": {
			"height": 60,
			"title": "sequence",
			"width": 143,
			"x": 1386,
			"y": 317
		},
		"HN6NewQW9s6Gjb0qrnDgXj0XyfFjQJqh": {
			"height": 92,
			"title": "store",
			"width": 243,
			"x": 1955,
			"y": 993
		},
		"Haps9AdG05DcHI1RcIT1rEy3YovH0tll": {
			"height": 94,
			"title": "store",
			"width": 255,
			"x": 932,
			"y": 1249
		},
		"JNcA9kvpWqPpRTh2kdzcnVzojXNIO1V3": {
			"height": 60,
			"title": "sequence",
			"width": 143,
			"x": 1396,
			"y": 1778
		},
		"JnS7zJ0IaSNG1VqAAjLMqne4sJrMCmsi": {
			"height": 177,
			"title": "reference",
			"width": 289,
			"x": 1247,
			"y": -178
		},
		"KTtbyMgfu9KyRFCc3AGX3D136L2PRqQj": {
			"height": 90,
			"title": "luaCondition",
			"width": 322,
			"x": 1586,
			"y": 1341
		},
		"Kx3ATnSC33M3thCYmCOflXIv8VIMeIQ5": {
			"height": 54,
			"title": "success",
			"width": 132,
			"x": 1971,
			"y": 1082
		},
		"MLfBes7RUWNqiWYiz9vBRUCq7hKYEdg3": {
			"height": 54,
			"title": "success",
			"width": 132,
			"x": 1977,
			"y": 513
		},
		"NmEVMl7j8iOhjNfLBdmjNwHKDfUG0Wg7": {
			"height": 94,
			"title": "store",
			"width": 257,
			"x": 922,
			"y": -246
		},
		"Olkb6EajL2M3MdIm0Z1cy6izzo4sSEAG": {
			"height": 94,
			"title": "store",
			"width": 255,
			"x": 921,
			"y": -160
		},
		"OvCVUeM2GM6o4crPAjw9E3y7341rXS0K": {
			"height": 90,
			"title": "luaCondition",
			"width": 322,
			"x": 1601,
			"y": 1190
		},
		"PH2WtAfJfTg2iucfVGQgjLoJZ87YeN3m": {
			"height": 90,
			"title": "luaCondition",
			"width": 322,
			"x": 1607,
			"y": 621
		},
		"PaujohoUFjF7Aqt3712jAypSThmrJo5A": {
			"height": 54,
			"title": "success",
			"width": 132,
			"x": 1938,
			"y": -67
		},
		"Pi7dTq6ZPpVJrFhV9zOTA74OlxYL9iLy": {
			"height": 92,
			"title": "store",
			"width": 243,
			"x": 1966,
			"y": 1432
		},
		"QmYy6mdcLmDtbepQ8cpGrWYhGIL2RacP": {
			"height": 90,
			"title": "luaCondition",
			"width": 348,
			"x": 877,
			"y": 1359
		},
		"QqdLgOeKrxuKBR7nMSyhdyiqpJri5eSw": {
			"height": 60,
			"title": "repeat",
			"width": 131,
			"x": 524,
			"y": 1059
		},
		"RB58Rx5VSdfAhHtFVfQcOcS6UY2HNEFh": {
			"height": 92,
			"title": "store",
			"width": 243,
			"x": 1953,
			"y": 1288
		},
		"RRVxyvtVr7x2B5qEUH1xs0BVJsJ4B1n2": {
			"height": 177,
			"title": "reference",
			"width": 289,
			"x": 1254,
			"y": 108
		},
		"RTTNugxOuiKShCF0ZSpTRXfy0xtFUXo2": {
			"height": 90,
			"title": "luaCondition",
			"width": 348,
			"x": 872,
			"y": 218
		},
		"SENZUdRl6kW9k4kGZ8BG3tYNZVo7bUM5": {
			"height": 60,
			"title": "repeat",
			"width": 131,
			"x": 524,
			"y": 791
		},
		"SrfXcvv2r7uwcK8TGnBK2aRwMEHdcs6x": {
			"height": 90,
			"title": "luaCondition",
			"width": 348,
			"x": 873,
			"y": -61
		},
		"U0fKlufJwFcrBODMenfLdQzADRBOYlBc": {
			"height": 60,
			"title": "sequence",
			"width": 143,
			"x": 1399,
			"y": 863
		},
		"U3fBYhxmRAWtfFRhyfMcyqzOC5J3VDmJ": {
			"height": 60,
			"title": "sequence",
			"width": 143,
			"x": 1361,
			"y": 18
		},
		"U9d88hZ6n7g3wGN4ZTKceiflpaH8A0SV": {
			"height": 60,
			"title": "sequence",
			"width": 143,
			"x": 1394,
			"y": 1167
		},
		"UjsVenuUWW70znEQwj4RkTiaVbf2IPyc": {
			"height": 92,
			"title": "store",
			"width": 243,
			"x": 1970,
			"y": 1748
		},
		"WB4CNes9ssbRniocctRxZpvVQ0MVCgyf": {
			"height": 60,
			"title": "repeat",
			"width": 131,
			"x": 511,
			"y": -55
		},
		"WOAaV3e79EQnsxKIBu5enqAvdhnTcpOF": {
			"height": 177,
			"title": "reference",
			"width": 289,
			"x": 1266,
			"y": 390
		},
		"WVjaJvMHAYbo8LTwKEVlgExOiirz0b4O": {
			"height": 90,
			"title": "luaCondition",
			"width": 322,
			"x": 1599,
			"y": 1485
		},
		"XR1NokEEYQKM6s9qpMMGlu6iHSUzeTI3": {
			"height": 60,
			"title": "sequence",
			"width": 143,
			"x": 702,
			"y": 1055
		},
		"Z1hkJfMwaF6FSBphKHAGv7nEm689ya1h": {
			"height": 70,
			"title": "parallel",
			"width": 202,
			"x": 256,
			"y": 8
		},
		"ZdhnnrOl4tfhXBRxOwP8oSUkXkdRC9KU": {
			"height": 94,
			"title": "store",
			"width": 257,
			"x": 935,
			"y": 600
		},
		"auc9e8EOKQ2SHZiKZ0vC3moqhw9lqOqV": {
			"height": 54,
			"title": "success",
			"width": 132,
			"x": 1986,
			"y": 1235
		},
		"bwxIdOzR8Lit2mCYLDpfBZMroSc52CdK": {
			"height": 90,
			"title": "luaCondition",
			"width": 322,
			"x": 1580,
			"y": 196
		},
		"dY9UerLQdn7M1nsioSIi1ly1V3KaFxdy": {
			"height": 92,
			"title": "store",
			"width": 243,
			"x": 1968,
			"y": 1137
		},
		"dvwry0OKB9v3mMqpf8K7JeEtC55Y17sc": {
			"height": 94,
			"title": "store",
			"width": 257,
			"x": 937,
			"y": 1479
		},
		"fZW17W7phgcfIs9SciEE7Idyl9MFpiUK": {
			"height": 90,
			"title": "luaCondition",
			"width": 348,
			"x": 881,
			"y": 1675
		},
		"gSiGQ17EVUOYgvvJxFdBfMDkW9GsT0Pe": {
			"height": 177,
			"title": "reference",
			"width": 289,
			"x": 1262,
			"y": 1547
		},
		"gewZm5bjIxaG2hhStqalH95hAVWHAq6Y": {
			"height": 90,
			"title": "luaCondition",
			"width": 322,
			"x": 1588,
			"y": 1046
		},
		"grgGmh3m94GLnwVg49ND0brAf5ayPslh": {
			"height": 54,
			"title": "success",
			"width": 132,
			"x": 1988,
			"y": 1846
		},
		"h2Dfn12GuJwuq72ob90kCH53PQjhTtno": {
			"height": 90,
			"title": "luaCondition",
			"width": 322,
			"x": 1593,
			"y": 742
		},
		"hJxsLTQLTL39DjSNOj0h8C5hiMkpkogr": {
			"height": 90,
			"title": "luaCondition",
			"width": 348,
			"x": 883,
			"y": 781
		},
		"hcIbRRsgGAOtuUgJ0RKNT7J27Z8V88rJ": {
			"height": 94,
			"title": "store",
			"width": 255,
			"x": 934,
			"y": 954
		},
		"htpm2nUiAuGoSENcgbxvZcH6TVKE0ING": {
			"height": 60,
			"title": "repeat",
			"width": 131,
			"x": 522,
			"y": 1354
		},
		"iN0czCAjPInhW0CUJNIE41rUe1QKMpL8": {
			"height": 177,
			"title": "reference",
			"width": 289,
			"x": 1260,
			"y": 668
		},
		"ikPRNi7y9ffm7yyYA7c8CmDMHB4dFp5a": {
			"height": 90,
			"title": "luaCondition",
			"width": 322,
			"x": 1568,
			"y": 41
		},
		"jGdS0Zq5eKMRD6hMF4n9nC6KOl308xla": {
			"height": 54,
			"title": "success",
			"width": 132,
			"x": 1978,
			"y": 385
		},
		"kN3mrZ0jExWxyRnAHiHvSxAHT1epgpJy": {
			"height": 90,
			"title": "luaCondition",
			"width": 322,
			"x": 1603,
			"y": 1801
		},
		"kWyenExHjdIxNxiPVLPnz45wWpLYqQPZ": {
			"height": 90,
			"title": "luaCondition",
			"width": 348,
			"x": 891,
			"y": 502
		},
		"kcNrhT0e3hzTtg1D7qvTnCvr5x3ywG4x": {
			"height": 54,
			"title": "success",
			"width": 132,
			"x": 1973,
			"y": 1693
		},
		"lH7ECVgmzoZUHalpOaUsrcssDJqhIC8N": {
			"height": 92,
			"title": "store",
			"width": 243,
			"x": 1935,
			"y": -12
		},
		"loWWocdFMqaCoGBYdXlFRCbV8jrsz1YR": {
			"height": 94,
			"title": "store",
			"width": 255,
			"x": 940,
			"y": 408
		},
		"m5cfBdh6Tn2lcLSUIhgJ5XE6eBsM8tvP": {
			"height": 90,
			"title": "luaCondition",
			"width": 348,
			"x": 879,
			"y": 1064
		},
		"nSLbnHTY0wk1n8Fq86aPBszcUb4VjCQr": {
			"height": 94,
			"title": "store",
			"width": 257,
			"x": 929,
			"y": 40
		},
		"nUnWeqe6zFiSFqQOT1cFJeAs7HBDLK89": {
			"height": 92,
			"title": "store",
			"width": 243,
			"x": 1957,
			"y": 1604
		},
		"oZCCis4qK4wLkabBeZf4XlaM0SOcdXZM": {
			"height": 54,
			"title": "success",
			"width": 132,
			"x": 1991,
			"y": 931
		},
		"pcF3gIVKRDMZOpBQSgLH2Ec8GeQpxRsm": {
			"height": 60,
			"title": "sequence",
			"width": 143,
			"x": 702,
			"y": 787
		},
		"q0r1EVuCvlJ7ZBshH6xVrZlJ9XK1EFEF": {
			"height": 54,
			"title": "success",
			"width": 132,
			"x": 1984,
			"y": 1530
		},
		"q4S5A2n9DGKt95qc8uI4NlwUlAMe8SRd": {
			"height": 90,
			"title": "luaCondition",
			"width": 322,
			"x": 1593,
			"y": 340
		},
		"qCEnjQW9Jx8ODnDufcCf26DXaEzc8uvX": {
			"height": 54,
			"title": "success",
			"width": 132,
			"x": 1963,
			"y": 232
		},
		"r06k1rnh7JIUu8dG8SVW3E9IFU9jz9Yf": {
			"height": 92,
			"title": "store",
			"width": 243,
			"x": 1973,
			"y": 833
		},
		"rHjNd6h4J7QrlcyfKB6oFsS1o4uSoALw": {
			"height": 94,
			"title": "store",
			"width": 255,
			"x": 936,
			"y": 1565
		},
		"rR6BWw8tTOhguFYK2UUYqbP7o8zs07V7": {
			"height": 177,
			"title": "reference",
			"width": 289,
			"x": 1260,
			"y": 936
		},
		"rRKchWayKKterVXlF2X6mTHGi8UcqcLh": {
			"height": 90,
			"title": "luaCondition",
			"width": 322,
			"x": 1555,
			"y": -103
		},
		"rZq1sjeLD9UTmRItv51H1Wa1Emyv76n2": {
			"height": 54,
			"title": "success",
			"width": 132,
			"x": 1992,
			"y": 666
		},
		"rkdJMM1TajxzLx4SKYkeP4EaU3lfEult": {
			"height": 90,
			"title": "luaCondition",
			"width": 322,
			"x": 1594,
			"y": 477
		},
		"rl7Jq5qjRmEfkWoeG7JKQsvjL34fMx9i": {
			"height": 94,
			"title": "store",
			"width": 257,
			"x": 935,
			"y": 868
		},
		"uRpvnKUBpxnVo2AfD9E9vyxb27GFDxoR": {
			"height": 60,
			"title": "repeat",
			"width": 131,
			"x": 526,
			"y": 1670
		},
		"umTsXupL708QCmaMUMrklHB6W6dBftQl": {
			"height": 94,
			"title": "store",
			"width": 255,
			"x": 934,
			"y": 686
		},
		"vg6nxRIjJgl4yciflE2ir45QeboPNe56": {
			"height": 60,
			"title": "sequence",
			"width": 143,
			"x": 1400,
			"y": 598
		},
		"wQMY0BArATj5eal26udeBIwtvgxevrB9": {
			"height": 92,
			"title": "store",
			"width": 243,
			"x": 1922,
			"y": -156
		},
		"xX33CeEvF9EvXTVDtarYygte8s6CsS1l": {
			"height": 60,
			"title": "sequence",
			"width": 143,
			"x": 1392,
			"y": 1462
		}
	},
	"roles": [ {
		"categories": [],
		"name": "Role 0"
	} ],
	"root": {
		"children": [ {
			"children": [ {
				"children": [ {
					"children": [],
					"id": "NmEVMl7j8iOhjNfLBdmjNwHKDfUG0Wg7",
					"nodeType": "luaCommand",
					"parameters": [ {
						"name": "var",
						"value": "u"
					}, {
						"name": "value",
						"value": "global['armatlas']"
					}, {
						"name": "scriptName",
						"value": "store"
					} ],
					"scriptName": "store"
				}, {
					"children": [],
					"id": "Olkb6EajL2M3MdIm0Z1cy6izzo4sSEAG",
					"nodeType": "luaCommand",
					"parameters": [ {
						"name": "var",
						"value": "t"
					}, {
						"name": "value",
						"value": "global['armbox']"
					}, {
						"name": "scriptName",
						"value": "store"
					} ],
					"scriptName": "store"
				}, {
					"children": [ {
						"children": [],
						"id": "JnS7zJ0IaSNG1VqAAjLMqne4sJrMCmsi",
						"nodeType": "reference",
						"parameters": [ {
							"name": "behaviourName",
							"value": "peter_guba_project_1.AtlasBoxAI"
						} ],
						"referenceInputs": [ {
							"name": "unit",
							"value": "u[1]"
						}, {
							"name": "target",
							"value": "t[1]"
						}, {
							"name": "unitIndex",
							"value": "1"
						} ],
						"referenceOutputs": []
					}, {
						"children": [ {
							"children": [ {
								"children": [],
								"id": "wQMY0BArATj5eal26udeBIwtvgxevrB9",
								"nodeType": "luaCommand",
								"parameters": [ {
									"name": "var",
									"value": "global['armatlas'][1]"
								}, {
									"name": "value",
									"value": "nil"
								}, {
									"name": "scriptName",
									"value": "store"
								} ],
								"scriptName": "store"
							}, {
								"children": [],
								"id": "PaujohoUFjF7Aqt3712jAypSThmrJo5A",
								"nodeType": "success",
								"parameters": []
							} ],
							"id": "rRKchWayKKterVXlF2X6mTHGi8UcqcLh",
							"nodeType": "luaCondition",
							"parameters": [ {
								"name": "expression",
								"value": "u[1] ~= nil and (not Spring.ValidUnitID(u[1]))"
							}, {
								"name": "repeat",
								"value": "true"
							} ]
						}, {
							"children": [ {
								"children": [],
								"id": "lH7ECVgmzoZUHalpOaUsrcssDJqhIC8N",
								"nodeType": "luaCommand",
								"parameters": [ {
									"name": "var",
									"value": "global['armbox'][1]"
								}, {
									"name": "value",
									"value": "nil"
								}, {
									"name": "scriptName",
									"value": "store"
								} ],
								"scriptName": "store"
							}, {
								"children": [],
								"id": "5YRKssFhKQiwXkPKiyksOxsEOKdUumtF",
								"nodeType": "success",
								"parameters": []
							} ],
							"id": "ikPRNi7y9ffm7yyYA7c8CmDMHB4dFp5a",
							"nodeType": "luaCondition",
							"parameters": [ {
								"name": "expression",
								"value": "t[1] ~= nil and (not Spring.ValidUnitID(t[1]))"
							}, {
								"name": "repeat",
								"value": "true"
							} ]
						} ],
						"id": "U3fBYhxmRAWtfFRhyfMcyqzOC5J3VDmJ",
						"nodeType": "sequence",
						"parameters": []
					} ],
					"id": "SrfXcvv2r7uwcK8TGnBK2aRwMEHdcs6x",
					"nodeType": "luaCondition",
					"parameters": [ {
						"name": "expression",
						"value": "u ~= nil and t ~= nil and u[1] ~= nil and t[1] ~= nil"
					}, {
						"name": "repeat",
						"value": "true"
					} ]
				} ],
				"id": "0hqJX36orAV9wiMXWPOVaRc5M6bBwaDM",
				"nodeType": "sequence",
				"parameters": []
			} ],
			"id": "WB4CNes9ssbRniocctRxZpvVQ0MVCgyf",
			"nodeType": "repeat",
			"parameters": []
		}, {
			"children": [ {
				"children": [ {
					"children": [],
					"id": "nSLbnHTY0wk1n8Fq86aPBszcUb4VjCQr",
					"nodeType": "luaCommand",
					"parameters": [ {
						"name": "var",
						"value": "u"
					}, {
						"name": "value",
						"value": "global['armatlas']"
					}, {
						"name": "scriptName",
						"value": "store"
					} ],
					"scriptName": "store"
				}, {
					"children": [],
					"id": "11SXFngtQG0DZGkWPtukFVe4QdJVDsn7",
					"nodeType": "luaCommand",
					"parameters": [ {
						"name": "var",
						"value": "t"
					}, {
						"name": "value",
						"value": "global['armbox']"
					}, {
						"name": "scriptName",
						"value": "store"
					} ],
					"scriptName": "store"
				}, {
					"children": [ {
						"children": [],
						"id": "RRVxyvtVr7x2B5qEUH1xs0BVJsJ4B1n2",
						"nodeType": "reference",
						"parameters": [ {
							"name": "behaviourName",
							"value": "peter_guba_project_1.AtlasBoxAI"
						} ],
						"referenceInputs": [ {
							"name": "unit",
							"value": "u[2]"
						}, {
							"name": "target",
							"value": "t[2]"
						}, {
							"name": "unitIndex",
							"value": "2"
						} ],
						"referenceOutputs": []
					}, {
						"children": [ {
							"children": [ {
								"children": [],
								"id": "ECIOAWy9nfFtIbjjQau8dEuBU0nzzLiT",
								"nodeType": "luaCommand",
								"parameters": [ {
									"name": "var",
									"value": "global['armatlas'][2]"
								}, {
									"name": "value",
									"value": "nil"
								}, {
									"name": "scriptName",
									"value": "store"
								} ],
								"scriptName": "store"
							}, {
								"children": [],
								"id": "qCEnjQW9Jx8ODnDufcCf26DXaEzc8uvX",
								"nodeType": "success",
								"parameters": []
							} ],
							"id": "bwxIdOzR8Lit2mCYLDpfBZMroSc52CdK",
							"nodeType": "luaCondition",
							"parameters": [ {
								"name": "expression",
								"value": "u[2] ~= nil and (not Spring.ValidUnitID(u[2]))"
							}, {
								"name": "repeat",
								"value": "true"
							} ]
						}, {
							"children": [ {
								"children": [],
								"id": "4XHgJYNBY8p4FmQhcgtLjfJW9XKDZVC5",
								"nodeType": "luaCommand",
								"parameters": [ {
									"name": "var",
									"value": "global['armbox'][2]"
								}, {
									"name": "value",
									"value": "nil"
								}, {
									"name": "scriptName",
									"value": "store"
								} ],
								"scriptName": "store"
							}, {
								"children": [],
								"id": "jGdS0Zq5eKMRD6hMF4n9nC6KOl308xla",
								"nodeType": "success",
								"parameters": []
							} ],
							"id": "q4S5A2n9DGKt95qc8uI4NlwUlAMe8SRd",
							"nodeType": "luaCondition",
							"parameters": [ {
								"name": "expression",
								"value": "t[2] ~= nil and (not Spring.ValidUnitID(t[2]))"
							}, {
								"name": "repeat",
								"value": "true"
							} ]
						} ],
						"id": "H8m5XOBa9rExgGZWodfLt2uj1WP5cSzo",
						"nodeType": "sequence",
						"parameters": []
					} ],
					"id": "RTTNugxOuiKShCF0ZSpTRXfy0xtFUXo2",
					"nodeType": "luaCondition",
					"parameters": [ {
						"name": "expression",
						"value": "u ~= nil and t ~= nil and u[2] ~= nil and t[2] ~= nil"
					}, {
						"name": "repeat",
						"value": "true"
					} ]
				} ],
				"id": "C7lT6z2d74E0ejlihphHxHHowfWZF0MS",
				"nodeType": "sequence",
				"parameters": []
			} ],
			"id": "7rgOsVKO2DMRv8o6h4xvwgqTFaILzLw7",
			"nodeType": "repeat",
			"parameters": []
		}, {
			"children": [ {
				"children": [ {
					"children": [],
					"id": "4HXlwMGyJptxgDwnxCIByYRptF3bVRd9",
					"nodeType": "luaCommand",
					"parameters": [ {
						"name": "var",
						"value": "u"
					}, {
						"name": "value",
						"value": "global['armatlas']"
					}, {
						"name": "scriptName",
						"value": "store"
					} ],
					"scriptName": "store"
				}, {
					"children": [],
					"id": "loWWocdFMqaCoGBYdXlFRCbV8jrsz1YR",
					"nodeType": "luaCommand",
					"parameters": [ {
						"name": "var",
						"value": "t"
					}, {
						"name": "value",
						"value": "global['armbox']"
					}, {
						"name": "scriptName",
						"value": "store"
					} ],
					"scriptName": "store"
				}, {
					"children": [ {
						"children": [],
						"id": "WOAaV3e79EQnsxKIBu5enqAvdhnTcpOF",
						"nodeType": "reference",
						"parameters": [ {
							"name": "behaviourName",
							"value": "peter_guba_project_1.AtlasBoxAI"
						} ],
						"referenceInputs": [ {
							"name": "unit",
							"value": "u[3]"
						}, {
							"name": "target",
							"value": "t[3]"
						}, {
							"name": "unitIndex",
							"value": "3"
						} ],
						"referenceOutputs": []
					}, {
						"children": [ {
							"children": [ {
								"children": [],
								"id": "8gcUjHWY6QnSmjCQcTuwXhhhmcJK94Sf",
								"nodeType": "luaCommand",
								"parameters": [ {
									"name": "var",
									"value": "global['armatlas'][3]"
								}, {
									"name": "value",
									"value": "nil"
								}, {
									"name": "scriptName",
									"value": "store"
								} ],
								"scriptName": "store"
							}, {
								"children": [],
								"id": "MLfBes7RUWNqiWYiz9vBRUCq7hKYEdg3",
								"nodeType": "success",
								"parameters": []
							} ],
							"id": "rkdJMM1TajxzLx4SKYkeP4EaU3lfEult",
							"nodeType": "luaCondition",
							"parameters": [ {
								"name": "expression",
								"value": "u[3] ~= nil and (not Spring.ValidUnitID(u[3]))"
							}, {
								"name": "repeat",
								"value": "true"
							} ]
						}, {
							"children": [ {
								"children": [],
								"id": "23QrJf1H56NYTFpHGAuLUojh2M7cPmSA",
								"nodeType": "luaCommand",
								"parameters": [ {
									"name": "var",
									"value": "global['armbox'][3]"
								}, {
									"name": "value",
									"value": "nil"
								}, {
									"name": "scriptName",
									"value": "store"
								} ],
								"scriptName": "store"
							}, {
								"children": [],
								"id": "rZq1sjeLD9UTmRItv51H1Wa1Emyv76n2",
								"nodeType": "success",
								"parameters": []
							} ],
							"id": "PH2WtAfJfTg2iucfVGQgjLoJZ87YeN3m",
							"nodeType": "luaCondition",
							"parameters": [ {
								"name": "expression",
								"value": "t[3] ~= nil and (not Spring.ValidUnitID(t[3]))"
							}, {
								"name": "repeat",
								"value": "true"
							} ]
						} ],
						"id": "vg6nxRIjJgl4yciflE2ir45QeboPNe56",
						"nodeType": "sequence",
						"parameters": []
					} ],
					"id": "kWyenExHjdIxNxiPVLPnz45wWpLYqQPZ",
					"nodeType": "luaCondition",
					"parameters": [ {
						"name": "expression",
						"value": "u ~= nil and t ~= nil and u[3] ~= nil and t[3] ~= nil"
					}, {
						"name": "repeat",
						"value": "true"
					} ]
				} ],
				"id": "Ce6GPV6xpedk1pEU0diQrtXjF6w7iJgr",
				"nodeType": "sequence",
				"parameters": []
			} ],
			"id": "7lbkVytr4RdfJtp8J6LbSO2Es72p0lEV",
			"nodeType": "repeat",
			"parameters": []
		}, {
			"children": [ {
				"children": [ {
					"children": [],
					"id": "ZdhnnrOl4tfhXBRxOwP8oSUkXkdRC9KU",
					"nodeType": "luaCommand",
					"parameters": [ {
						"name": "var",
						"value": "u"
					}, {
						"name": "value",
						"value": "global['armatlas']"
					}, {
						"name": "scriptName",
						"value": "store"
					} ],
					"scriptName": "store"
				}, {
					"children": [],
					"id": "umTsXupL708QCmaMUMrklHB6W6dBftQl",
					"nodeType": "luaCommand",
					"parameters": [ {
						"name": "var",
						"value": "t"
					}, {
						"name": "value",
						"value": "global['armbox']"
					}, {
						"name": "scriptName",
						"value": "store"
					} ],
					"scriptName": "store"
				}, {
					"children": [ {
						"children": [],
						"id": "iN0czCAjPInhW0CUJNIE41rUe1QKMpL8",
						"nodeType": "reference",
						"parameters": [ {
							"name": "behaviourName",
							"value": "peter_guba_project_1.AtlasBoxAI"
						} ],
						"referenceInputs": [ {
							"name": "unit",
							"value": "u[4]"
						}, {
							"name": "target",
							"value": "t[4]"
						}, {
							"name": "unitIndex",
							"value": "4"
						} ],
						"referenceOutputs": []
					}, {
						"children": [ {
							"children": [ {
								"children": [],
								"id": "BsatTdmjCUVheXwSgoOvUBcJKSp9Tpth",
								"nodeType": "luaCommand",
								"parameters": [ {
									"name": "var",
									"value": "global['armatlas'][4]"
								}, {
									"name": "value",
									"value": "nil"
								}, {
									"name": "scriptName",
									"value": "store"
								} ],
								"scriptName": "store"
							}, {
								"children": [],
								"id": "Df6RKNmrD8I4u6VXuhjAuIEuTB70tTTd",
								"nodeType": "success",
								"parameters": []
							} ],
							"id": "h2Dfn12GuJwuq72ob90kCH53PQjhTtno",
							"nodeType": "luaCondition",
							"parameters": [ {
								"name": "expression",
								"value": "u[4] ~= nil and (not Spring.ValidUnitID(u[4]))"
							}, {
								"name": "repeat",
								"value": "true"
							} ]
						}, {
							"children": [ {
								"children": [],
								"id": "r06k1rnh7JIUu8dG8SVW3E9IFU9jz9Yf",
								"nodeType": "luaCommand",
								"parameters": [ {
									"name": "var",
									"value": "global['armbox'][4]"
								}, {
									"name": "value",
									"value": "nil"
								}, {
									"name": "scriptName",
									"value": "store"
								} ],
								"scriptName": "store"
							}, {
								"children": [],
								"id": "oZCCis4qK4wLkabBeZf4XlaM0SOcdXZM",
								"nodeType": "success",
								"parameters": []
							} ],
							"id": "DPtyPnt2SO0KJimxqrWwJ4wpl7r5bCSE",
							"nodeType": "luaCondition",
							"parameters": [ {
								"name": "expression",
								"value": "t[4] ~= nil and (not Spring.ValidUnitID(t[4]))"
							}, {
								"name": "repeat",
								"value": "true"
							} ]
						} ],
						"id": "U0fKlufJwFcrBODMenfLdQzADRBOYlBc",
						"nodeType": "sequence",
						"parameters": []
					} ],
					"id": "hJxsLTQLTL39DjSNOj0h8C5hiMkpkogr",
					"nodeType": "luaCondition",
					"parameters": [ {
						"name": "expression",
						"value": "u ~= nil and t ~= nil and u[4] ~= nil and t[4] ~= nil"
					}, {
						"name": "repeat",
						"value": "true"
					} ]
				} ],
				"id": "pcF3gIVKRDMZOpBQSgLH2Ec8GeQpxRsm",
				"nodeType": "sequence",
				"parameters": []
			} ],
			"id": "SENZUdRl6kW9k4kGZ8BG3tYNZVo7bUM5",
			"nodeType": "repeat",
			"parameters": []
		}, {
			"children": [ {
				"children": [ {
					"children": [],
					"id": "rl7Jq5qjRmEfkWoeG7JKQsvjL34fMx9i",
					"nodeType": "luaCommand",
					"parameters": [ {
						"name": "var",
						"value": "u"
					}, {
						"name": "value",
						"value": "global['armatlas']"
					}, {
						"name": "scriptName",
						"value": "store"
					} ],
					"scriptName": "store"
				}, {
					"children": [],
					"id": "hcIbRRsgGAOtuUgJ0RKNT7J27Z8V88rJ",
					"nodeType": "luaCommand",
					"parameters": [ {
						"name": "var",
						"value": "t"
					}, {
						"name": "value",
						"value": "global['armbox']"
					}, {
						"name": "scriptName",
						"value": "store"
					} ],
					"scriptName": "store"
				}, {
					"children": [ {
						"children": [],
						"id": "rR6BWw8tTOhguFYK2UUYqbP7o8zs07V7",
						"nodeType": "reference",
						"parameters": [ {
							"name": "behaviourName",
							"value": "peter_guba_project_1.AtlasBoxAI"
						} ],
						"referenceInputs": [ {
							"name": "unit",
							"value": "u[5]"
						}, {
							"name": "target",
							"value": "t[5]"
						}, {
							"name": "unitIndex",
							"value": "5"
						} ],
						"referenceOutputs": []
					}, {
						"children": [ {
							"children": [ {
								"children": [],
								"id": "HN6NewQW9s6Gjb0qrnDgXj0XyfFjQJqh",
								"nodeType": "luaCommand",
								"parameters": [ {
									"name": "var",
									"value": "global['armatlas'][5]"
								}, {
									"name": "value",
									"value": "nil"
								}, {
									"name": "scriptName",
									"value": "store"
								} ],
								"scriptName": "store"
							}, {
								"children": [],
								"id": "Kx3ATnSC33M3thCYmCOflXIv8VIMeIQ5",
								"nodeType": "success",
								"parameters": []
							} ],
							"id": "gewZm5bjIxaG2hhStqalH95hAVWHAq6Y",
							"nodeType": "luaCondition",
							"parameters": [ {
								"name": "expression",
								"value": "u[5] ~= nil and (not Spring.ValidUnitID(u[5]))"
							}, {
								"name": "repeat",
								"value": "true"
							} ]
						}, {
							"children": [ {
								"children": [],
								"id": "dY9UerLQdn7M1nsioSIi1ly1V3KaFxdy",
								"nodeType": "luaCommand",
								"parameters": [ {
									"name": "var",
									"value": "global['armbox'][5]"
								}, {
									"name": "value",
									"value": "nil"
								}, {
									"name": "scriptName",
									"value": "store"
								} ],
								"scriptName": "store"
							}, {
								"children": [],
								"id": "auc9e8EOKQ2SHZiKZ0vC3moqhw9lqOqV",
								"nodeType": "success",
								"parameters": []
							} ],
							"id": "OvCVUeM2GM6o4crPAjw9E3y7341rXS0K",
							"nodeType": "luaCondition",
							"parameters": [ {
								"name": "expression",
								"value": "t[5] ~= nil and (not Spring.ValidUnitID(t[5]))"
							}, {
								"name": "repeat",
								"value": "true"
							} ]
						} ],
						"id": "U9d88hZ6n7g3wGN4ZTKceiflpaH8A0SV",
						"nodeType": "sequence",
						"parameters": []
					} ],
					"id": "m5cfBdh6Tn2lcLSUIhgJ5XE6eBsM8tvP",
					"nodeType": "luaCondition",
					"parameters": [ {
						"name": "expression",
						"value": "u ~= nil and t ~= nil and u[5] ~= nil and t[5] ~= nil"
					}, {
						"name": "repeat",
						"value": "true"
					} ]
				} ],
				"id": "XR1NokEEYQKM6s9qpMMGlu6iHSUzeTI3",
				"nodeType": "sequence",
				"parameters": []
			} ],
			"id": "QqdLgOeKrxuKBR7nMSyhdyiqpJri5eSw",
			"nodeType": "repeat",
			"parameters": []
		}, {
			"children": [ {
				"children": [ {
					"children": [],
					"id": "8JaMS93dtWTktaDe9BSRVTvRHdB9plL0",
					"nodeType": "luaCommand",
					"parameters": [ {
						"name": "var",
						"value": "u"
					}, {
						"name": "value",
						"value": "global['armatlas']"
					}, {
						"name": "scriptName",
						"value": "store"
					} ],
					"scriptName": "store"
				}, {
					"children": [],
					"id": "Haps9AdG05DcHI1RcIT1rEy3YovH0tll",
					"nodeType": "luaCommand",
					"parameters": [ {
						"name": "var",
						"value": "t"
					}, {
						"name": "value",
						"value": "global['armbox']"
					}, {
						"name": "scriptName",
						"value": "store"
					} ],
					"scriptName": "store"
				}, {
					"children": [ {
						"children": [],
						"id": "BqFUnOcvNRKNaaEQiqBy5zAlCZ77fRkH",
						"nodeType": "reference",
						"parameters": [ {
							"name": "behaviourName",
							"value": "peter_guba_project_1.AtlasBoxAI"
						} ],
						"referenceInputs": [ {
							"name": "unit",
							"value": "u[6]"
						}, {
							"name": "target",
							"value": "t[6]"
						}, {
							"name": "unitIndex",
							"value": "6"
						} ],
						"referenceOutputs": []
					}, {
						"children": [ {
							"children": [ {
								"children": [],
								"id": "RB58Rx5VSdfAhHtFVfQcOcS6UY2HNEFh",
								"nodeType": "luaCommand",
								"parameters": [ {
									"name": "var",
									"value": "global['armatlas'][6]"
								}, {
									"name": "value",
									"value": "nil"
								}, {
									"name": "scriptName",
									"value": "store"
								} ],
								"scriptName": "store"
							}, {
								"children": [],
								"id": "1TOqkuoU168Ty4tiv8e07rYPuwWQHAB6",
								"nodeType": "success",
								"parameters": []
							} ],
							"id": "KTtbyMgfu9KyRFCc3AGX3D136L2PRqQj",
							"nodeType": "luaCondition",
							"parameters": [ {
								"name": "expression",
								"value": "u[6] ~= nil and (not Spring.ValidUnitID(u[6]))"
							}, {
								"name": "repeat",
								"value": "true"
							} ]
						}, {
							"children": [ {
								"children": [],
								"id": "Pi7dTq6ZPpVJrFhV9zOTA74OlxYL9iLy",
								"nodeType": "luaCommand",
								"parameters": [ {
									"name": "var",
									"value": "global['armbox'][6]"
								}, {
									"name": "value",
									"value": "nil"
								}, {
									"name": "scriptName",
									"value": "store"
								} ],
								"scriptName": "store"
							}, {
								"children": [],
								"id": "q0r1EVuCvlJ7ZBshH6xVrZlJ9XK1EFEF",
								"nodeType": "success",
								"parameters": []
							} ],
							"id": "WVjaJvMHAYbo8LTwKEVlgExOiirz0b4O",
							"nodeType": "luaCondition",
							"parameters": [ {
								"name": "expression",
								"value": "t[6] ~= nil and (not Spring.ValidUnitID(t[6]))"
							}, {
								"name": "repeat",
								"value": "true"
							} ]
						} ],
						"id": "xX33CeEvF9EvXTVDtarYygte8s6CsS1l",
						"nodeType": "sequence",
						"parameters": []
					} ],
					"id": "QmYy6mdcLmDtbepQ8cpGrWYhGIL2RacP",
					"nodeType": "luaCondition",
					"parameters": [ {
						"name": "expression",
						"value": "u ~= nil and t ~= nil and u[5] ~= nil and t[5] ~= nil"
					}, {
						"name": "repeat",
						"value": "true"
					} ]
				} ],
				"id": "EgfgHBOeEblQg2EsgWY9OJi3AJ51OiJL",
				"nodeType": "sequence",
				"parameters": []
			} ],
			"id": "htpm2nUiAuGoSENcgbxvZcH6TVKE0ING",
			"nodeType": "repeat",
			"parameters": []
		}, {
			"children": [ {
				"children": [ {
					"children": [],
					"id": "dvwry0OKB9v3mMqpf8K7JeEtC55Y17sc",
					"nodeType": "luaCommand",
					"parameters": [ {
						"name": "var",
						"value": "u"
					}, {
						"name": "value",
						"value": "global['armatlas']"
					}, {
						"name": "scriptName",
						"value": "store"
					} ],
					"scriptName": "store"
				}, {
					"children": [],
					"id": "rHjNd6h4J7QrlcyfKB6oFsS1o4uSoALw",
					"nodeType": "luaCommand",
					"parameters": [ {
						"name": "var",
						"value": "t"
					}, {
						"name": "value",
						"value": "global['armbox']"
					}, {
						"name": "scriptName",
						"value": "store"
					} ],
					"scriptName": "store"
				}, {
					"children": [ {
						"children": [],
						"id": "gSiGQ17EVUOYgvvJxFdBfMDkW9GsT0Pe",
						"nodeType": "reference",
						"parameters": [ {
							"name": "behaviourName",
							"value": "peter_guba_project_1.AtlasBoxAI"
						} ],
						"referenceInputs": [ {
							"name": "unit",
							"value": "u[7]"
						}, {
							"name": "target",
							"value": "t[7]"
						}, {
							"name": "unitIndex",
							"value": "7"
						} ],
						"referenceOutputs": []
					}, {
						"children": [ {
							"children": [ {
								"children": [],
								"id": "nUnWeqe6zFiSFqQOT1cFJeAs7HBDLK89",
								"nodeType": "luaCommand",
								"parameters": [ {
									"name": "var",
									"value": "global['armatlas'][7]"
								}, {
									"name": "value",
									"value": "nil"
								}, {
									"name": "scriptName",
									"value": "store"
								} ],
								"scriptName": "store"
							}, {
								"children": [],
								"id": "kcNrhT0e3hzTtg1D7qvTnCvr5x3ywG4x",
								"nodeType": "success",
								"parameters": []
							} ],
							"id": "AimSVrSaiclAAFzOOunH0YOzduC6l9X8",
							"nodeType": "luaCondition",
							"parameters": [ {
								"name": "expression",
								"value": "u[7] ~= nil and (not Spring.ValidUnitID(u[7]))"
							}, {
								"name": "repeat",
								"value": "true"
							} ]
						}, {
							"children": [ {
								"children": [],
								"id": "UjsVenuUWW70znEQwj4RkTiaVbf2IPyc",
								"nodeType": "luaCommand",
								"parameters": [ {
									"name": "var",
									"value": "global['armbox'][7]"
								}, {
									"name": "value",
									"value": "nil"
								}, {
									"name": "scriptName",
									"value": "store"
								} ],
								"scriptName": "store"
							}, {
								"children": [],
								"id": "grgGmh3m94GLnwVg49ND0brAf5ayPslh",
								"nodeType": "success",
								"parameters": []
							} ],
							"id": "kN3mrZ0jExWxyRnAHiHvSxAHT1epgpJy",
							"nodeType": "luaCondition",
							"parameters": [ {
								"name": "expression",
								"value": "t[7] ~= nil and (not Spring.ValidUnitID(t[7]))"
							}, {
								"name": "repeat",
								"value": "true"
							} ]
						} ],
						"id": "JNcA9kvpWqPpRTh2kdzcnVzojXNIO1V3",
						"nodeType": "sequence",
						"parameters": []
					} ],
					"id": "fZW17W7phgcfIs9SciEE7Idyl9MFpiUK",
					"nodeType": "luaCondition",
					"parameters": [ {
						"name": "expression",
						"value": "u ~= nil and t ~= nil and u[7] ~= nil and t[7] ~= nil"
					}, {
						"name": "repeat",
						"value": "true"
					} ]
				} ],
				"id": "F2AFHGmmW2PRcHVHpsBpiPVqdmM6BFne",
				"nodeType": "sequence",
				"parameters": []
			} ],
			"id": "uRpvnKUBpxnVo2AfD9E9vyxb27GFDxoR",
			"nodeType": "repeat",
			"parameters": []
		} ],
		"id": "Z1hkJfMwaF6FSBphKHAGv7nEm689ya1h",
		"nodeType": "parallel",
		"parameters": [ {
			"name": "mode",
			"value": "all-success"
		} ]
	}
}