{
	"additionalNodes": [],
	"additionalParameters": {
		"root": {
			"height": 88,
			"width": 180
		}
	},
	"inputs": [],
	"outputs": [],
	"properties": {
		"2bP486Qz70aFlEDIzEhI5MlOf28rfQPs": {
			"height": 60,
			"title": "sequence",
			"width": 143,
			"x": 233,
			"y": 22
		},
		"3dt4TdLk6yWTcT2dp9W5S2JqLTqmzLEf": {
			"height": 92,
			"title": "store",
			"width": 151,
			"x": 432,
			"y": -143
		},
		"5taDzbn9WmSbMDTNZxNRGNsTxBmUvrvN": {
			"height": 92,
			"title": "store",
			"width": 151,
			"x": 711,
			"y": -115
		},
		"910QOAc0ERCnJYbIrlINcPEQoL4ZURUg": {
			"height": 193,
			"title": "reference",
			"width": 321,
			"x": 851,
			"y": 226
		},
		"O8RmYTg9MFr9hDg3PQKKFAKbMP3jNDRS": {
			"height": 92,
			"title": "store",
			"width": 151,
			"x": 571,
			"y": -130
		},
		"RJiYCw0vhmIPE2HtztAbA8XB7jQsUj9V": {
			"height": 193,
			"title": "reference",
			"width": 321,
			"x": 855,
			"y": 421
		},
		"RW4Uineg5ZgUWkiEdV9mJQEP0pRucXCA": {
			"height": 193,
			"title": "reference",
			"width": 321,
			"x": 853,
			"y": 29
		},
		"hZD8caXrTjXOCAQ4mlY7yek6vO1yggZC": {
			"height": 92,
			"title": "store",
			"width": 131,
			"x": 856,
			"y": -101
		},
		"vioPpuNHLTZnwj7dNFggd1JgJhSGixw8": {
			"height": 94,
			"title": "store",
			"width": 211,
			"x": 528,
			"y": 1
		},
		"yrQCVOjdeFqK4jvcx1lPemOGqzsYJNnl": {
			"height": 70,
			"title": "parallel",
			"width": 202,
			"x": 513,
			"y": 182
		}
	},
	"roles": [ {
		"categories": [],
		"name": "Role 0"
	} ],
	"root": {
		"children": [ {
			"children": [],
			"id": "3dt4TdLk6yWTcT2dp9W5S2JqLTqmzLEf",
			"nodeType": "luaCommand",
			"parameters": [ {
				"name": "var",
				"value": "corridor1Pos"
			}, {
				"name": "value",
				"value": "nil"
			}, {
				"name": "scriptName",
				"value": "store"
			} ],
			"scriptName": "store"
		}, {
			"children": [],
			"id": "O8RmYTg9MFr9hDg3PQKKFAKbMP3jNDRS",
			"nodeType": "luaCommand",
			"parameters": [ {
				"name": "var",
				"value": "corridor2Pos"
			}, {
				"name": "value",
				"value": "nil"
			}, {
				"name": "scriptName",
				"value": "store"
			} ],
			"scriptName": "store"
		}, {
			"children": [],
			"id": "5taDzbn9WmSbMDTNZxNRGNsTxBmUvrvN",
			"nodeType": "luaCommand",
			"parameters": [ {
				"name": "var",
				"value": "corridor3Pos"
			}, {
				"name": "value",
				"value": "nil"
			}, {
				"name": "scriptName",
				"value": "store"
			} ],
			"scriptName": "store"
		}, {
			"children": [],
			"id": "hZD8caXrTjXOCAQ4mlY7yek6vO1yggZC",
			"nodeType": "luaCommand",
			"parameters": [ {
				"name": "var",
				"value": "radius"
			}, {
				"name": "value",
				"value": "nil"
			}, {
				"name": "scriptName",
				"value": "store"
			} ],
			"scriptName": "store"
		}, {
			"children": [],
			"id": "vioPpuNHLTZnwj7dNFggd1JgJhSGixw8",
			"nodeType": "luaCommand",
			"parameters": [ {
				"name": "var",
				"value": "unitGroups"
			}, {
				"name": "value",
				"value": "DivideUnits(units, 3)"
			}, {
				"name": "scriptName",
				"value": "store"
			} ],
			"scriptName": "store"
		}, {
			"children": [ {
				"children": [],
				"id": "RW4Uineg5ZgUWkiEdV9mJQEP0pRucXCA",
				"nodeType": "reference",
				"parameters": [ {
					"name": "behaviourName",
					"value": "peter_guba_project_1.AssignGetMetal"
				} ],
				"referenceInputs": [ {
					"name": "unitsSubarray",
					"value": "unitGroups[1]"
				}, {
					"name": "x",
					"value": "corridor1Pos.x"
				}, {
					"name": "z",
					"value": "corridor1Pos.z"
				}, {
					"name": "radius",
					"value": "radius"
				} ],
				"referenceOutputs": []
			}, {
				"children": [],
				"id": "910QOAc0ERCnJYbIrlINcPEQoL4ZURUg",
				"nodeType": "reference",
				"parameters": [ {
					"name": "behaviourName",
					"value": "peter_guba_project_1.AssignGetMetal"
				} ],
				"referenceInputs": [ {
					"name": "unitsSubarray",
					"value": "unitGroups[2]"
				}, {
					"name": "x",
					"value": "corridor2Pos.x"
				}, {
					"name": "z",
					"value": "corridor2Pos.z"
				}, {
					"name": "radius",
					"value": "radius"
				} ],
				"referenceOutputs": []
			}, {
				"children": [],
				"id": "RJiYCw0vhmIPE2HtztAbA8XB7jQsUj9V",
				"nodeType": "reference",
				"parameters": [ {
					"name": "behaviourName",
					"value": "peter_guba_project_1.AssignGetMetal"
				} ],
				"referenceInputs": [ {
					"name": "unitsSubarray",
					"value": "unitGroups[3]"
				}, {
					"name": "x",
					"value": "corridor3Pos.x"
				}, {
					"name": "z",
					"value": "corridor3Pos.z"
				}, {
					"name": "radius",
					"value": "radius"
				} ],
				"referenceOutputs": []
			} ],
			"id": "yrQCVOjdeFqK4jvcx1lPemOGqzsYJNnl",
			"nodeType": "parallel",
			"parameters": [ {
				"name": "mode",
				"value": "all-success"
			} ]
		} ],
		"id": "2bP486Qz70aFlEDIzEhI5MlOf28rfQPs",
		"nodeType": "sequence",
		"parameters": []
	}
}