{
	"additionalNodes": [],
	"additionalParameters": {
		"root": {
			"height": 88,
			"width": 180
		}
	},
	"inputs": [],
	"outputs": [],
	"properties": {
		"1k6T7g55Cad6yLi3EaIfZpLU7YnFxGzD": {
			"height": 70,
			"title": "parallel",
			"width": 202,
			"x": 1110,
			"y": 707
		},
		"2MH54iUv03yXblpGpiMjRZg6dxBXObBk": {
			"height": 70,
			"title": "parallel",
			"width": 202,
			"x": 1135,
			"y": 393
		},
		"3SsUxtrhaTbkTARRju6UAJci1xn3Wpt2": {
			"height": 195,
			"title": "reference",
			"width": 317,
			"x": 1387,
			"y": 258
		},
		"3btWKlchVlFtoO3hQHeE368ohB6IJR88": {
			"height": 92,
			"title": "store",
			"width": 184,
			"x": 1142,
			"y": 1053
		},
		"5OdoIL3J2Dm0YB80eMCDtsLgx0wolyT7": {
			"height": 60,
			"title": "sequence",
			"width": 143,
			"x": 253,
			"y": 8
		},
		"76mfbnF6EDPdykdzReWgGwyT3VLRn6CR": {
			"height": 94,
			"title": "store",
			"width": 257,
			"x": 1405,
			"y": -218
		},
		"7l63xyfJDhuvNdBEYKlWdWhJGc4Q0LdU": {
			"height": 72,
			"title": "waitUntil",
			"width": 420,
			"x": 1585,
			"y": 728
		},
		"82cBMlSDOdEmLGUCV7rLuLsUowNnCTKm": {
			"height": 94,
			"title": "store",
			"width": 198,
			"x": 1082,
			"y": -220
		},
		"8A21hx8ytftb66A5eZjv1LbZ6IJqD4nG": {
			"height": 195,
			"title": "reference",
			"width": 317,
			"x": 1683,
			"y": 540
		},
		"A2aYvULsFv1wLBJco4CsgZn4g5oTePnD": {
			"height": 60,
			"title": "repeat",
			"width": 131,
			"x": 705,
			"y": -83
		},
		"AUJRppp4yVc7hcRZTV42Y7Qy2reZJABS": {
			"height": 60,
			"title": "sequence",
			"width": 143,
			"x": 459,
			"y": -115
		},
		"FAQYgUrQ0QgQiN3BtvnDOe7tmgggg1Hy": {
			"height": 94,
			"title": "store",
			"width": 257,
			"x": 1403,
			"y": -302
		},
		"GyaJ6FvVTPoi2xpzr5TifnQMYXZAjeVG": {
			"height": 60,
			"title": "sequence",
			"width": 143,
			"x": 938,
			"y": 903
		},
		"H2cBX41rBvZAi4h7D1oXWqMHbRnCGdPF": {
			"height": 110,
			"title": "reference",
			"width": 313,
			"x": 1009,
			"y": 156
		},
		"IYQFhsiKVTuLDQA6578T39RbdpFFJQAr": {
			"height": 72,
			"title": "waitUntil",
			"width": 438,
			"x": 917,
			"y": 272
		},
		"KJGcvrrw6ZyqfHhTZzx6HCm4m7WJftzb": {
			"height": 109,
			"title": "reference",
			"width": 315,
			"x": 1571,
			"y": 782
		},
		"LaQUtFiEXmp8GrXsQwcbcub6SXXn8lYK": {
			"height": 60,
			"title": "sequence",
			"width": 143,
			"x": 698,
			"y": 661
		},
		"MnVZVpwMyd5MBHqv3TVGBBULeqACbixL": {
			"height": 194,
			"title": "reference",
			"width": 317,
			"x": 1007,
			"y": -34
		},
		"NNVb19NECNEszgRdoDTWr5L7RTqrBFLi": {
			"height": 94,
			"title": "store",
			"width": 198,
			"x": 694,
			"y": -334
		},
		"P0mzIXMgDRgY3IY1gnJwzHn68lFNx0Gn": {
			"height": 110,
			"title": "reference",
			"width": 319,
			"x": 1392,
			"y": 458
		},
		"Qkin9owgeQIuZRZ8ekj1bpl1QoFNISE6": {
			"height": 113,
			"title": "peter_guba_project_1.UpgradeLine",
			"width": 295,
			"x": 1130,
			"y": 936
		},
		"T1bZDjlCGsKZkzslad9SneRehwPBZKiX": {
			"height": 92,
			"title": "store",
			"width": 191,
			"x": 695,
			"y": -234
		},
		"VFdTiSTPzIIkzfsghgXsb3vzA3ryH4dB": {
			"height": 60,
			"title": "sequence",
			"width": 143,
			"x": 723,
			"y": 347
		},
		"XjfwIQlAY13vI6muvqIlKKtqvLa0ctR8": {
			"height": 60,
			"title": "repeat",
			"width": 131,
			"x": 790,
			"y": 904
		},
		"ZSmEBN2un2fVTAxxxvvOvEI0qqBegCaY": {
			"height": 70,
			"title": "parallel",
			"width": 202,
			"x": 458,
			"y": 189
		},
		"iEL4jkO5wB9ESSAMyKitmBg1eH2mgDox": {
			"height": 94,
			"title": "store",
			"width": 255,
			"x": 1671,
			"y": -258
		},
		"j0O8mlX04bHExB01JzWvfDbwYfJsY1Lp": {
			"height": 94,
			"title": "store",
			"width": 388,
			"x": 1079,
			"y": -134
		},
		"jwXgtiNXhZV04sUfKhvi9o0oFWT0sZBk": {
			"height": 60,
			"title": "sequence",
			"width": 143,
			"x": 1350,
			"y": 795
		},
		"lI6vY7ZdquBwJl8pezEY8rdOCQnjgJPZ": {
			"height": 70,
			"title": "parallel",
			"width": 202,
			"x": 748,
			"y": 97
		},
		"pXEDC667pGtIqW8FVb5DXc4yt59Mhs9o": {
			"height": 74,
			"title": "waitUntil",
			"width": 272,
			"x": 1138,
			"y": 857
		},
		"qprtjtLOTyo9B5pF8R44ozZeoOuYksok": {
			"height": 92,
			"title": "store",
			"width": 184,
			"x": 1669,
			"y": -354
		},
		"shpG8KfxgIYsuFlVaAXiJnZJLi3zlvQX": {
			"height": 94,
			"title": "store",
			"width": 250,
			"x": 907,
			"y": -327
		},
		"uMuOxtfcVkTHRS4841550kemIQge9KPO": {
			"height": 94,
			"title": "store",
			"width": 257,
			"x": 1156,
			"y": -317
		},
		"vglsdKgmyLsTZVImsvw0pXrG031QmGmi": {
			"height": 60,
			"title": "sequence",
			"width": 143,
			"x": 886,
			"y": -133
		},
		"xo9pdX4ZaUWsjhXapUVca2bLO4YaLpEp": {
			"height": 72,
			"title": "waitUntil",
			"width": 438,
			"x": 879,
			"y": 597
		},
		"yUJvnXQ8cfWcy8IwjhLsR1iYGXHWTaX9": {
			"height": 195,
			"title": "reference",
			"width": 317,
			"x": 1361,
			"y": 528
		}
	},
	"roles": [ {
		"categories": [],
		"name": "Role 0"
	} ],
	"root": {
		"children": [ {
			"children": [ {
				"children": [],
				"id": "qprtjtLOTyo9B5pF8R44ozZeoOuYksok",
				"nodeType": "luaCommand",
				"parameters": [ {
					"name": "var",
					"value": "global['upgraded']"
				}, {
					"name": "value",
					"value": "true"
				}, {
					"name": "scriptName",
					"value": "store"
				} ],
				"scriptName": "store"
			}, {
				"children": [],
				"id": "NNVb19NECNEszgRdoDTWr5L7RTqrBFLi",
				"nodeType": "luaCommand",
				"parameters": [ {
					"name": "var",
					"value": "global['info']"
				}, {
					"name": "value",
					"value": "core.MissionInfo()"
				}, {
					"name": "scriptName",
					"value": "store"
				} ],
				"scriptName": "store"
			}, {
				"children": [],
				"id": "shpG8KfxgIYsuFlVaAXiJnZJLi3zlvQX",
				"nodeType": "luaCommand",
				"parameters": [ {
					"name": "var",
					"value": "global['armbox']"
				}, {
					"name": "value",
					"value": "GetUnitsOfType('armbox')"
				}, {
					"name": "scriptName",
					"value": "store"
				} ],
				"scriptName": "store"
			}, {
				"children": [],
				"id": "uMuOxtfcVkTHRS4841550kemIQge9KPO",
				"nodeType": "luaCommand",
				"parameters": [ {
					"name": "var",
					"value": "global['armatlas']"
				}, {
					"name": "value",
					"value": "GetUnitsOfType('armatlas')"
				}, {
					"name": "scriptName",
					"value": "store"
				} ],
				"scriptName": "store"
			}, {
				"children": [],
				"id": "FAQYgUrQ0QgQiN3BtvnDOe7tmgggg1Hy",
				"nodeType": "luaCommand",
				"parameters": [ {
					"name": "var",
					"value": "global['armseer']"
				}, {
					"name": "value",
					"value": "GetUnitsOfType('armseer')"
				}, {
					"name": "scriptName",
					"value": "store"
				} ],
				"scriptName": "store"
			}, {
				"children": [],
				"id": "iEL4jkO5wB9ESSAMyKitmBg1eH2mgDox",
				"nodeType": "luaCommand",
				"parameters": [ {
					"name": "var",
					"value": "global['armmav']"
				}, {
					"name": "value",
					"value": "GetUnitsOfType('armmav')"
				}, {
					"name": "scriptName",
					"value": "store"
				} ],
				"scriptName": "store"
			}, {
				"children": [],
				"id": "T1bZDjlCGsKZkzslad9SneRehwPBZKiX",
				"nodeType": "luaCommand",
				"parameters": [ {
					"name": "var",
					"value": "prices"
				}, {
					"name": "value",
					"value": "global['info'].buy"
				}, {
					"name": "scriptName",
					"value": "store"
				} ],
				"scriptName": "store"
			}, {
				"children": [],
				"id": "76mfbnF6EDPdykdzReWgGwyT3VLRn6CR",
				"nodeType": "luaCommand",
				"parameters": [ {
					"name": "var",
					"value": "global['armfark']"
				}, {
					"name": "value",
					"value": "GetUnitsOfType('armfark')"
				}, {
					"name": "scriptName",
					"value": "store"
				} ],
				"scriptName": "store"
			} ],
			"id": "AUJRppp4yVc7hcRZTV42Y7Qy2reZJABS",
			"nodeType": "sequence",
			"parameters": []
		}, {
			"children": [ {
				"children": [ {
					"children": [ {
						"children": [],
						"id": "82cBMlSDOdEmLGUCV7rLuLsUowNnCTKm",
						"nodeType": "luaCommand",
						"parameters": [ {
							"name": "var",
							"value": "global['info']"
						}, {
							"name": "value",
							"value": "core.MissionInfo()"
						}, {
							"name": "scriptName",
							"value": "store"
						} ],
						"scriptName": "store"
					}, {
						"children": [],
						"id": "j0O8mlX04bHExB01JzWvfDbwYfJsY1Lp",
						"nodeType": "luaCommand",
						"parameters": [ {
							"name": "var",
							"value": "global['BLIndices']"
						}, {
							"name": "value",
							"value": "UpdateBattleLineIndices(global['info'].corridors)"
						}, {
							"name": "scriptName",
							"value": "store"
						} ],
						"scriptName": "store"
					} ],
					"id": "vglsdKgmyLsTZVImsvw0pXrG031QmGmi",
					"nodeType": "sequence",
					"parameters": []
				} ],
				"id": "A2aYvULsFv1wLBJco4CsgZn4g5oTePnD",
				"nodeType": "repeat",
				"parameters": []
			}, {
				"children": [ {
					"children": [],
					"id": "MnVZVpwMyd5MBHqv3TVGBBULeqACbixL",
					"nodeType": "reference",
					"parameters": [ {
						"name": "behaviourName",
						"value": "peter_guba_project_1.BuyUnitOfType"
					} ],
					"referenceInputs": [ {
						"name": "unitName",
						"value": "'armseer'"
					}, {
						"name": "price",
						"value": "prices['armseer']"
					}, {
						"name": "count",
						"value": "3"
					} ],
					"referenceOutputs": []
				}, {
					"children": [],
					"id": "H2cBX41rBvZAi4h7D1oXWqMHbRnCGdPF",
					"nodeType": "reference",
					"parameters": [ {
						"name": "behaviourName",
						"value": "peter_guba_project_1.DispatchSeers"
					} ],
					"referenceInputs": [],
					"referenceOutputs": []
				} ],
				"id": "lI6vY7ZdquBwJl8pezEY8rdOCQnjgJPZ",
				"nodeType": "parallel",
				"parameters": [ {
					"name": "mode",
					"value": "all-success"
				} ]
			}, {
				"children": [ {
					"children": [],
					"id": "IYQFhsiKVTuLDQA6578T39RbdpFFJQAr",
					"nodeType": "luaCommand",
					"parameters": [ {
						"name": "condition",
						"value": "global['armseer'] ~= nil and #global['armseer'] >= 3"
					}, {
						"name": "scriptName",
						"value": "waitUntil"
					} ],
					"scriptName": "waitUntil"
				}, {
					"children": [ {
						"children": [],
						"id": "3SsUxtrhaTbkTARRju6UAJci1xn3Wpt2",
						"nodeType": "reference",
						"parameters": [ {
							"name": "behaviourName",
							"value": "peter_guba_project_1.BuyUnitOfType"
						} ],
						"referenceInputs": [ {
							"name": "unitName",
							"value": "'armfark'"
						}, {
							"name": "price",
							"value": "prices['armfark']"
						}, {
							"name": "count",
							"value": "6"
						} ],
						"referenceOutputs": []
					}, {
						"children": [],
						"id": "P0mzIXMgDRgY3IY1gnJwzHn68lFNx0Gn",
						"nodeType": "reference",
						"parameters": [ {
							"name": "behaviourName",
							"value": "peter_guba_project_1.DispatchFarcks"
						} ],
						"referenceInputs": [],
						"referenceOutputs": []
					} ],
					"id": "2MH54iUv03yXblpGpiMjRZg6dxBXObBk",
					"nodeType": "parallel",
					"parameters": [ {
						"name": "mode",
						"value": "all-success"
					} ]
				} ],
				"id": "VFdTiSTPzIIkzfsghgXsb3vzA3ryH4dB",
				"nodeType": "sequence",
				"parameters": []
			}, {
				"children": [ {
					"children": [],
					"id": "xo9pdX4ZaUWsjhXapUVca2bLO4YaLpEp",
					"nodeType": "luaCommand",
					"parameters": [ {
						"name": "condition",
						"value": "global['armfark'] ~= nil and #global['armfark'] >= 6"
					}, {
						"name": "scriptName",
						"value": "waitUntil"
					} ],
					"scriptName": "waitUntil"
				}, {
					"children": [ {
						"children": [],
						"id": "yUJvnXQ8cfWcy8IwjhLsR1iYGXHWTaX9",
						"nodeType": "reference",
						"parameters": [ {
							"name": "behaviourName",
							"value": "peter_guba_project_1.BuyUnitOfType"
						} ],
						"referenceInputs": [ {
							"name": "unitName",
							"value": "'armatlas'"
						}, {
							"name": "price",
							"value": "prices['armatlas']"
						}, {
							"name": "count",
							"value": "5"
						} ],
						"referenceOutputs": []
					}, {
						"children": [],
						"id": "8A21hx8ytftb66A5eZjv1LbZ6IJqD4nG",
						"nodeType": "reference",
						"parameters": [ {
							"name": "behaviourName",
							"value": "peter_guba_project_1.BuyUnitOfType"
						} ],
						"referenceInputs": [ {
							"name": "unitName",
							"value": "'armbox'"
						}, {
							"name": "price",
							"value": "prices['armbox']"
						}, {
							"name": "count",
							"value": "5"
						} ],
						"referenceOutputs": []
					}, {
						"children": [ {
							"children": [],
							"id": "7l63xyfJDhuvNdBEYKlWdWhJGc4Q0LdU",
							"nodeType": "luaCommand",
							"parameters": [ {
								"name": "condition",
								"value": "global['armbox'] ~= nil and #global['armbox'] >= 5"
							}, {
								"name": "scriptName",
								"value": "waitUntil"
							} ],
							"scriptName": "waitUntil"
						}, {
							"children": [],
							"id": "KJGcvrrw6ZyqfHhTZzx6HCm4m7WJftzb",
							"nodeType": "reference",
							"parameters": [ {
								"name": "behaviourName",
								"value": "peter_guba_project_1.DispatchBoxes"
							} ],
							"referenceInputs": [],
							"referenceOutputs": []
						} ],
						"id": "jwXgtiNXhZV04sUfKhvi9o0oFWT0sZBk",
						"nodeType": "sequence",
						"parameters": []
					} ],
					"id": "1k6T7g55Cad6yLi3EaIfZpLU7YnFxGzD",
					"nodeType": "parallel",
					"parameters": [ {
						"name": "mode",
						"value": "all-success"
					} ]
				} ],
				"id": "LaQUtFiEXmp8GrXsQwcbcub6SXXn8lYK",
				"nodeType": "sequence",
				"parameters": []
			}, {
				"children": [ {
					"children": [ {
						"children": [],
						"id": "pXEDC667pGtIqW8FVb5DXc4yt59Mhs9o",
						"nodeType": "luaCommand",
						"parameters": [ {
							"name": "condition",
							"value": "GetMetalCount() >= 2100"
						}, {
							"name": "scriptName",
							"value": "waitUntil"
						} ],
						"scriptName": "waitUntil"
					}, {
						"children": [],
						"id": "Qkin9owgeQIuZRZ8ekj1bpl1QoFNISE6",
						"nodeType": "luaCommand",
						"parameters": [ {
							"name": "lineName",
							"value": "'GoodMiddle'"
						}, {
							"name": "upgradeLevel",
							"value": "7"
						}, {
							"name": "price",
							"value": "2100"
						}, {
							"name": "scriptName",
							"value": "peter_guba_project_1.UpgradeLine"
						} ],
						"scriptName": "peter_guba_project_1.UpgradeLine"
					}, {
						"children": [],
						"id": "3btWKlchVlFtoO3hQHeE368ohB6IJR88",
						"nodeType": "luaCommand",
						"parameters": [ {
							"name": "var",
							"value": "global['upgraded']"
						}, {
							"name": "value",
							"value": "true"
						}, {
							"name": "scriptName",
							"value": "store"
						} ],
						"scriptName": "store"
					} ],
					"id": "GyaJ6FvVTPoi2xpzr5TifnQMYXZAjeVG",
					"nodeType": "sequence",
					"parameters": []
				} ],
				"id": "XjfwIQlAY13vI6muvqIlKKtqvLa0ctR8",
				"nodeType": "repeat",
				"parameters": []
			} ],
			"id": "ZSmEBN2un2fVTAxxxvvOvEI0qqBegCaY",
			"nodeType": "parallel",
			"parameters": [ {
				"name": "mode",
				"value": "all-success"
			} ]
		} ],
		"id": "5OdoIL3J2Dm0YB80eMCDtsLgx0wolyT7",
		"nodeType": "sequence",
		"parameters": []
	}
}