{
	"additionalNodes": [],
	"additionalParameters": {
		"root": {
			"height": 228,
			"width": 239
		}
	},
	"inputs": [ {
		"command": "BETS_UNIT",
		"name": "unit"
	}, {
		"command": "Variable",
		"name": "radius"
	}, {
		"command": "Variable",
		"name": "unitIndex"
	}, {
		"command": "Variable",
		"name": "corridorIndex"
	}, {
		"command": "Variable",
		"name": "corridorOffset"
	} ],
	"outputs": [],
	"properties": {
		"4dVXWKExU0wpgcfcPD8vooSXoBk1cJ4a": {
			"height": 94,
			"title": "store",
			"width": 611,
			"x": 1052,
			"y": -166
		},
		"BZScdTd3HeZROO9PWH5CrC2Z6r25ZSGr": {
			"height": 70,
			"title": "parallel",
			"width": 202,
			"x": 262,
			"y": 36
		},
		"Ej3YjSjv8Ne3CccAISfqO9uphJHSGS3Z": {
			"height": 92,
			"title": "store",
			"width": 237,
			"x": 691,
			"y": 188
		},
		"QU6LhZlwNo6Lc6NKqfru6LGyukb0neYS": {
			"height": 74,
			"title": "waitUntil",
			"width": 464,
			"x": 1081,
			"y": -77
		},
		"YuWTJOe8XnwkwL1hQjiaBhla1U2tM3Li": {
			"height": 70,
			"title": "parallel",
			"width": 202,
			"x": 1060,
			"y": 21
		},
		"ZYOvosDyg4zKoGduaNQFDP8LdtqRDJSS": {
			"height": 74,
			"title": "waitUntil",
			"width": 307,
			"x": 1422,
			"y": -5
		},
		"ZobjCyQ6imVgWV8T6AQu7jHywVuNuwE8": {
			"height": 60,
			"title": "sequence",
			"width": 143,
			"x": 818,
			"y": -22
		},
		"amIDjzzBztTjr4NiOF3Ss1EQi9qhSLbL": {
			"height": 74,
			"title": "waitUntil",
			"width": 282,
			"x": 690,
			"y": 109
		},
		"cSi0JdvMZxVxelCEmu80ydBTmgjtPnHK": {
			"height": 54,
			"title": "failure",
			"width": 131,
			"x": 694,
			"y": 281
		},
		"f3NRUqjrUHQaKrdwnTBSQYGe8eUxsuJ7": {
			"height": 60,
			"title": "repeat",
			"width": 131,
			"x": 602,
			"y": -23
		},
		"fc9RSDE1aLW6g786oxHa7YcSmjXVvdyf": {
			"height": 132,
			"title": "peter_guba_project_1.GetMetal",
			"width": 263,
			"x": 1423,
			"y": 119
		},
		"mnTLVsjl73lOQITkKLTNtWu4RwRbV7Yw": {
			"height": 60,
			"title": "sequence",
			"width": 143,
			"x": 503,
			"y": 184
		},
		"q2p2fZ9vjow475P3nOnhXUdYkBIkRPUl": {
			"height": 92,
			"title": "peter_guba_project_1.NewMoveIndividual",
			"width": 629,
			"x": 1043,
			"y": -251
		}
	},
	"roles": [ {
		"categories": [],
		"name": "Role 0"
	} ],
	"root": {
		"children": [ {
			"children": [ {
				"children": [ {
					"children": [],
					"id": "q2p2fZ9vjow475P3nOnhXUdYkBIkRPUl",
					"nodeType": "luaCommand",
					"parameters": [ {
						"name": "position",
						"value": "GetPrevPointPos(global['info'], corridorOffset + 1, global['BLIndices'][corridorIndex])"
					}, {
						"name": "unit",
						"value": "unit"
					}, {
						"name": "scriptName",
						"value": "peter_guba_project_1.NewMoveIndividual"
					} ],
					"scriptName": "peter_guba_project_1.NewMoveIndividual"
				}, {
					"children": [],
					"id": "4dVXWKExU0wpgcfcPD8vooSXoBk1cJ4a",
					"nodeType": "luaCommand",
					"parameters": [ {
						"name": "var",
						"value": "destination"
					}, {
						"name": "value",
						"value": "GetPrevPointPos(global['info'], corridorOffset, global['BLIndices'][corridorIndex])"
					}, {
						"name": "scriptName",
						"value": "store"
					} ],
					"scriptName": "store"
				}, {
					"children": [],
					"id": "QU6LhZlwNo6Lc6NKqfru6LGyukb0neYS",
					"nodeType": "luaCommand",
					"parameters": [ {
						"name": "condition",
						"value": "CheckForMetal(destination.x, destination.z, radius) ~= 0"
					}, {
						"name": "scriptName",
						"value": "waitUntil"
					} ],
					"scriptName": "waitUntil"
				}, {
					"children": [ {
						"children": [],
						"id": "ZYOvosDyg4zKoGduaNQFDP8LdtqRDJSS",
						"nodeType": "luaCommand",
						"parameters": [ {
							"name": "condition",
							"value": "CheckForEnemies(unit, 425)"
						}, {
							"name": "scriptName",
							"value": "waitUntil"
						} ],
						"scriptName": "waitUntil"
					}, {
						"children": [],
						"id": "fc9RSDE1aLW6g786oxHa7YcSmjXVvdyf",
						"nodeType": "luaCommand",
						"parameters": [ {
							"name": "x",
							"value": "destination.x"
						}, {
							"name": "z",
							"value": "destination.z"
						}, {
							"name": "radius",
							"value": "radius"
						}, {
							"name": "unit",
							"value": "unit"
						}, {
							"name": "scriptName",
							"value": "peter_guba_project_1.GetMetal"
						} ],
						"scriptName": "peter_guba_project_1.GetMetal"
					} ],
					"id": "YuWTJOe8XnwkwL1hQjiaBhla1U2tM3Li",
					"nodeType": "parallel",
					"parameters": [ {
						"name": "mode",
						"value": "any-success"
					} ]
				} ],
				"id": "ZobjCyQ6imVgWV8T6AQu7jHywVuNuwE8",
				"nodeType": "sequence",
				"parameters": []
			} ],
			"id": "f3NRUqjrUHQaKrdwnTBSQYGe8eUxsuJ7",
			"nodeType": "repeat",
			"parameters": []
		}, {
			"children": [ {
				"children": [],
				"id": "amIDjzzBztTjr4NiOF3Ss1EQi9qhSLbL",
				"nodeType": "luaCommand",
				"parameters": [ {
					"name": "condition",
					"value": "not Spring.ValidUnitID(unit)"
				}, {
					"name": "scriptName",
					"value": "waitUntil"
				} ],
				"scriptName": "waitUntil"
			}, {
				"children": [],
				"id": "Ej3YjSjv8Ne3CccAISfqO9uphJHSGS3Z",
				"nodeType": "luaCommand",
				"parameters": [ {
					"name": "var",
					"value": "global['armfark'][unitIndex]"
				}, {
					"name": "value",
					"value": "nil"
				}, {
					"name": "scriptName",
					"value": "store"
				} ],
				"scriptName": "store"
			}, {
				"children": [],
				"id": "cSi0JdvMZxVxelCEmu80ydBTmgjtPnHK",
				"nodeType": "failure",
				"parameters": []
			} ],
			"id": "mnTLVsjl73lOQITkKLTNtWu4RwRbV7Yw",
			"nodeType": "sequence",
			"parameters": []
		} ],
		"id": "BZScdTd3HeZROO9PWH5CrC2Z6r25ZSGr",
		"nodeType": "parallel",
		"parameters": [ {
			"name": "mode",
			"value": "any-result"
		} ]
	}
}