{
	"additionalNodes": [],
	"additionalParameters": {
		"root": {
			"height": 88,
			"width": 180
		}
	},
	"inputs": [],
	"outputs": [],
	"properties": {
		"YRGd3z3ncBnIqDYNUYH4JyGLQchbLqY4": {
			"height": 92,
			"title": "store",
			"width": 160,
			"x": 452,
			"y": -106
		},
		"fosP2WZ2m1iNpx4Zzu0hBLFbbsJ8U6ae": {
			"height": 60,
			"title": "sequence",
			"width": 143,
			"x": 244,
			"y": 8
		},
		"jqbKQTfFtvmLSfozywKzonOF5EvWn8ey": {
			"height": 60,
			"title": "repeat",
			"width": 131,
			"x": 463,
			"y": 89
		},
		"s5KzUjIlDAp3N0ddDUvQFh5OtAlXChq7": {
			"height": 54,
			"title": "success",
			"width": 132,
			"x": 687,
			"y": 71
		}
	},
	"roles": [ {
		"categories": [],
		"name": "Role 0"
	} ],
	"root": {
		"children": [ {
			"children": [],
			"id": "YRGd3z3ncBnIqDYNUYH4JyGLQchbLqY4",
			"nodeType": "luaCommand",
			"parameters": [ {
				"name": "var",
				"value": "global['farcks']"
			}, {
				"name": "value",
				"value": "25"
			}, {
				"name": "scriptName",
				"value": "store"
			} ],
			"scriptName": "store"
		}, {
			"children": [ {
				"children": [],
				"id": "s5KzUjIlDAp3N0ddDUvQFh5OtAlXChq7",
				"nodeType": "success",
				"parameters": []
			} ],
			"id": "jqbKQTfFtvmLSfozywKzonOF5EvWn8ey",
			"nodeType": "repeat",
			"parameters": []
		} ],
		"id": "fosP2WZ2m1iNpx4Zzu0hBLFbbsJ8U6ae",
		"nodeType": "sequence",
		"parameters": []
	}
}