{
	"additionalNodes": [],
	"additionalParameters": {
		"root": {
			"height": 88,
			"width": 180
		}
	},
	"inputs": [],
	"outputs": [],
	"properties": {
		"8N4GatU9b3qifsbZIbhz6xSV2jbg05GV": {
			"height": 60,
			"title": "sequence",
			"width": 143,
			"x": 193,
			"y": 10
		},
		"Ig2wYo8E3QtXMBuCTmVoCmwfUDi8kycJ": {
			"height": 70,
			"title": "parallel",
			"width": 202,
			"x": 955,
			"y": 307
		},
		"IlVESZFXl94bjOcqQ6Qd7w5p4wlpBjyH": {
			"height": 172,
			"title": "reference",
			"width": 317,
			"x": 899,
			"y": -157
		},
		"Jl7udYU06NTlnJObLV1EDow1acILcGPb": {
			"height": 72,
			"title": "waitUntil",
			"width": 322,
			"x": 798,
			"y": 192
		},
		"PxKPR3UEXNBGFsfGnH3ZAQYoAwZJIDkb": {
			"height": 70,
			"title": "parallel",
			"width": 202,
			"x": 615,
			"y": -4
		},
		"aNKibbM40QAFU0TgEQ8ip1thMyKqRS4B": {
			"height": 70,
			"title": "roleSplit",
			"width": 202,
			"x": 365,
			"y": 69
		},
		"g4CIX1Lmybwx3DtJDhDUW3lmMebBiwU8": {
			"height": 92,
			"title": "store",
			"width": 131,
			"x": 375,
			"y": -233
		},
		"glyl3mwXJmFg7ARjFA24nQLXcAQ9vtmr": {
			"height": 60,
			"title": "sequence",
			"width": 143,
			"x": 623,
			"y": 280
		},
		"krniu3kSDmih5ppeyeUZ5p8CFbwMPVil": {
			"height": 172,
			"title": "reference",
			"width": 317,
			"x": 1235,
			"y": 149
		},
		"m2gtDZeDEypeJnyK3HVL9DMg7V9ZXMmr": {
			"height": 110,
			"title": "reference",
			"width": 319,
			"x": 900,
			"y": 15
		},
		"yGNPFOt9AizA7XpduidmTEV4l8pTm8T6": {
			"height": 92,
			"title": "store",
			"width": 188,
			"x": 372,
			"y": -146
		},
		"zTbKT7i5ArCNFRy5C31BT5iV23kKFh1f": {
			"height": 54,
			"title": "success",
			"width": 132,
			"x": 640,
			"y": 475
		}
	},
	"roles": [ {
		"categories": [ "peter_guba_project_1.farck" ],
		"name": "Role 0"
	}, {
		"categories": [ "peter_guba_project_1.seer" ],
		"name": "Role 1"
	}, {
		"categories": [],
		"name": "Role 2"
	} ],
	"root": {
		"children": [ {
			"children": [],
			"id": "g4CIX1Lmybwx3DtJDhDUW3lmMebBiwU8",
			"nodeType": "luaCommand",
			"parameters": [ {
				"name": "var",
				"value": "prices"
			}, {
				"name": "value",
				"value": "nil"
			}, {
				"name": "scriptName",
				"value": "store"
			} ],
			"scriptName": "store"
		}, {
			"children": [],
			"id": "yGNPFOt9AizA7XpduidmTEV4l8pTm8T6",
			"nodeType": "luaCommand",
			"parameters": [ {
				"name": "var",
				"value": "numOfUnitsAtStart"
			}, {
				"name": "value",
				"value": "#units"
			}, {
				"name": "scriptName",
				"value": "store"
			} ],
			"scriptName": "store"
		}, {
			"children": [ {
				"children": [ {
					"children": [],
					"id": "IlVESZFXl94bjOcqQ6Qd7w5p4wlpBjyH",
					"nodeType": "reference",
					"parameters": [ {
						"name": "behaviourName",
						"value": "peter_guba_project_1.BuyUnitOfType"
					} ],
					"referenceInputs": [ {
						"name": "unitName",
						"value": "'armfark'"
					}, {
						"name": "price",
						"value": "prices['armfarck']"
					}, {
						"name": "count",
						"value": "15"
					} ],
					"referenceOutputs": []
				}, {
					"children": [],
					"id": "m2gtDZeDEypeJnyK3HVL9DMg7V9ZXMmr",
					"nodeType": "reference",
					"parameters": [ {
						"name": "behaviourName",
						"value": "peter_guba_project_1.DispatchFarcks"
					} ],
					"referenceInputs": [],
					"referenceOutputs": []
				} ],
				"id": "PxKPR3UEXNBGFsfGnH3ZAQYoAwZJIDkb",
				"nodeType": "parallel",
				"parameters": [ {
					"name": "mode",
					"value": "all-success"
				} ]
			}, {
				"children": [ {
					"children": [],
					"id": "Jl7udYU06NTlnJObLV1EDow1acILcGPb",
					"nodeType": "luaCommand",
					"parameters": [ {
						"name": "condition",
						"value": "#units == numOfUnitsAtStart + 15"
					}, {
						"name": "scriptName",
						"value": "waitUntil"
					} ],
					"scriptName": "waitUntil"
				}, {
					"children": [ {
						"children": [],
						"id": "krniu3kSDmih5ppeyeUZ5p8CFbwMPVil",
						"nodeType": "reference",
						"parameters": [ {
							"name": "behaviourName",
							"value": "peter_guba_project_1.BuyUnitOfType"
						} ],
						"referenceInputs": [ {
							"name": "unitName",
							"value": "'armseer'"
						}, {
							"name": "price",
							"value": "prices['armseer']"
						}, {
							"name": "count",
							"value": "3"
						} ],
						"referenceOutputs": []
					} ],
					"id": "Ig2wYo8E3QtXMBuCTmVoCmwfUDi8kycJ",
					"nodeType": "parallel",
					"parameters": [ {
						"name": "mode",
						"value": "all-success"
					} ]
				} ],
				"id": "glyl3mwXJmFg7ARjFA24nQLXcAQ9vtmr",
				"nodeType": "sequence",
				"parameters": []
			}, {
				"children": [],
				"id": "zTbKT7i5ArCNFRy5C31BT5iV23kKFh1f",
				"nodeType": "success",
				"parameters": []
			} ],
			"id": "aNKibbM40QAFU0TgEQ8ip1thMyKqRS4B",
			"nodeType": "roleSplit",
			"parameters": [ {
				"name": "mode",
				"value": "all-success"
			} ]
		} ],
		"id": "8N4GatU9b3qifsbZIbhz6xSV2jbg05GV",
		"nodeType": "sequence",
		"parameters": []
	}
}