{
	"additionalNodes": [],
	"additionalParameters": {
		"root": {
			"height": 188,
			"width": 239
		}
	},
	"inputs": [ {
		"command": "Variable",
		"name": "corridor"
	}, {
		"command": "BETS_UNIT",
		"name": "unit"
	}, {
		"command": "Variable",
		"name": "unitIndex"
	}, {
		"command": "Variable",
		"name": "corridorOffset"
	} ],
	"outputs": [],
	"properties": {
		"1mV5z18k2GZdLTo3sf4HROoJE7AAQwHZ": {
			"height": 54,
			"title": "failure",
			"width": 131,
			"x": 848,
			"y": 261
		},
		"2G6DJqruxUmzY6EPDpbQGa6oI31V6yy2": {
			"height": 92,
			"title": "store",
			"width": 292,
			"x": 898,
			"y": -216
		},
		"2Kt4BrYIx9Hp5J2TXAD84bYeOGNXyoM4": {
			"height": 74,
			"title": "waitUntil",
			"width": 282,
			"x": 844,
			"y": 89
		},
		"6t8zsiG9d5mR1iBJpZlLdzcfToGve3li": {
			"height": 70,
			"title": "parallel",
			"width": 202,
			"x": 405,
			"y": 64
		},
		"B0plqhP5cOOJxNm3hGFhHf5W5ty793d6": {
			"height": 60,
			"title": "sequence",
			"width": 143,
			"x": 658,
			"y": 164
		},
		"EXqPQPf3B07WaAQsSc8lG2ACG2rSc33N": {
			"height": 92,
			"title": "peter_guba_project_1.NewMoveIndividual",
			"width": 706,
			"x": 892,
			"y": -97
		},
		"Ug1NttBrM7G21MBu9BajgaTByPgXO4Ch": {
			"height": 92,
			"title": "store",
			"width": 241,
			"x": 845,
			"y": 168
		},
		"oV2JoXGIhfGSSFTQhdKvIgzN7fTr9jnx": {
			"height": 60,
			"title": "sequence",
			"width": 143,
			"x": 668,
			"y": -18
		},
		"ttZXRfYQli9OB0FUEdTXvW9fcKYcZ9J5": {
			"height": 72,
			"title": "waitUntil",
			"width": 422,
			"x": 902,
			"y": 21
		}
	},
	"roles": [ {
		"categories": [],
		"name": "Role 0"
	} ],
	"root": {
		"children": [ {
			"children": [ {
				"children": [],
				"id": "2G6DJqruxUmzY6EPDpbQGa6oI31V6yy2",
				"nodeType": "luaCommand",
				"parameters": [ {
					"name": "var",
					"value": "currentIndex"
				}, {
					"name": "value",
					"value": "global.BLIndices[unitIndex].index"
				}, {
					"name": "scriptName",
					"value": "store"
				} ],
				"scriptName": "store"
			}, {
				"children": [],
				"id": "EXqPQPf3B07WaAQsSc8lG2ACG2rSc33N",
				"nodeType": "luaCommand",
				"parameters": [ {
					"name": "position",
					"value": "global['info'].corridors[corridor].points[global.BLIndices[unitIndex].index - corridorOffset].position"
				}, {
					"name": "unit",
					"value": "unit"
				}, {
					"name": "scriptName",
					"value": "peter_guba_project_1.NewMoveIndividual"
				} ],
				"scriptName": "peter_guba_project_1.NewMoveIndividual"
			}, {
				"children": [],
				"id": "ttZXRfYQli9OB0FUEdTXvW9fcKYcZ9J5",
				"nodeType": "luaCommand",
				"parameters": [ {
					"name": "condition",
					"value": "global.BLIndices[unitIndex].index ~= currentIndex"
				}, {
					"name": "scriptName",
					"value": "waitUntil"
				} ],
				"scriptName": "waitUntil"
			} ],
			"id": "oV2JoXGIhfGSSFTQhdKvIgzN7fTr9jnx",
			"nodeType": "sequence",
			"parameters": []
		}, {
			"children": [ {
				"children": [],
				"id": "2Kt4BrYIx9Hp5J2TXAD84bYeOGNXyoM4",
				"nodeType": "luaCommand",
				"parameters": [ {
					"name": "condition",
					"value": "not Spring.ValidUnitID(unit)"
				}, {
					"name": "scriptName",
					"value": "waitUntil"
				} ],
				"scriptName": "waitUntil"
			}, {
				"children": [],
				"id": "Ug1NttBrM7G21MBu9BajgaTByPgXO4Ch",
				"nodeType": "luaCommand",
				"parameters": [ {
					"name": "var",
					"value": "global['armseer'][unitIndex]"
				}, {
					"name": "value",
					"value": "nil"
				}, {
					"name": "scriptName",
					"value": "store"
				} ],
				"scriptName": "store"
			}, {
				"children": [],
				"id": "1mV5z18k2GZdLTo3sf4HROoJE7AAQwHZ",
				"nodeType": "failure",
				"parameters": []
			} ],
			"id": "B0plqhP5cOOJxNm3hGFhHf5W5ty793d6",
			"nodeType": "sequence",
			"parameters": []
		} ],
		"id": "6t8zsiG9d5mR1iBJpZlLdzcfToGve3li",
		"nodeType": "parallel",
		"parameters": [ {
			"name": "mode",
			"value": "any-result"
		} ]
	}
}