{
	"additionalNodes": [ {
		"children": [ {
			"children": [],
			"id": "c18WM2VWdzSGbcoloh2BpYtMJVFrwhMY",
			"nodeType": "repeat",
			"parameters": []
		}, {
			"children": [],
			"id": "JgRe7pk8J03LY0mwhTWXgfd8vGRYYCc9",
			"nodeType": "luaCommand",
			"parameters": [ {
				"name": "condition",
				"value": "count2 == 2"
			}, {
				"name": "scriptName",
				"value": "waitUntil"
			} ],
			"scriptName": "waitUntil"
		} ],
		"id": "MRplCChmhBy0XNNbotl4aLEnluOzSrVk",
		"nodeType": "parallel",
		"parameters": [ {
			"name": "mode",
			"value": "any-success"
		} ]
	}, {
		"children": [ {
			"children": [],
			"id": "cHkOEeHVcuEjZlpfNa5g26tMzPr5lE9Q",
			"nodeType": "success",
			"parameters": []
		} ],
		"id": "z7H7uot17LOBjPhWqtsFBvYhGJR9U9m9",
		"nodeType": "repeat",
		"parameters": []
	}, {
		"children": [],
		"id": "Cr9DJnkh58AFHvJBrSh39WMvd9x2hOvw",
		"nodeType": "luaCommand",
		"parameters": [ {
			"name": "var",
			"value": "count2"
		}, {
			"name": "value",
			"value": "0"
		}, {
			"name": "scriptName",
			"value": "store"
		} ],
		"scriptName": "store"
	} ],
	"additionalParameters": {
		"root": {
			"height": 88,
			"width": 180
		}
	},
	"inputs": [],
	"outputs": [],
	"properties": {
		"6ifzcEss5bPRUTtPW4zNgT3sfue2NX6z": {
			"height": 110,
			"title": "reference",
			"width": 336,
			"x": 807,
			"y": 8
		},
		"Cr9DJnkh58AFHvJBrSh39WMvd9x2hOvw": {
			"height": 92,
			"title": "store",
			"width": 131,
			"x": 415,
			"y": -73
		},
		"JgRe7pk8J03LY0mwhTWXgfd8vGRYYCc9": {
			"height": 72,
			"title": "waitUntil",
			"width": 185,
			"x": 739,
			"y": -240
		},
		"MRplCChmhBy0XNNbotl4aLEnluOzSrVk": {
			"height": 70,
			"title": "parallel",
			"width": 202,
			"x": 478,
			"y": -326
		},
		"bV8RZdtUAoLUoqxb0wUSfN2mEgRxdkde": {
			"height": 92,
			"title": "store",
			"width": 131,
			"x": 750,
			"y": 116
		},
		"c18WM2VWdzSGbcoloh2BpYtMJVFrwhMY": {
			"height": 60,
			"title": "repeat",
			"width": 131,
			"x": 732,
			"y": -381
		},
		"cHkOEeHVcuEjZlpfNa5g26tMzPr5lE9Q": {
			"height": 54,
			"title": "success",
			"width": 132,
			"x": 587,
			"y": 185
		},
		"eRtAvjGmQz78gnZuLPVnvPECxjEzRNp6": {
			"height": 60,
			"title": "sequence",
			"width": 143,
			"x": 557,
			"y": 25
		},
		"kpDl130Q9FAJ99ybT41UC8gFZYL1viEu": {
			"height": 92,
			"title": "store",
			"width": 143,
			"x": 750,
			"y": -84
		},
		"z7H7uot17LOBjPhWqtsFBvYhGJR9U9m9": {
			"height": 60,
			"title": "repeat",
			"width": 131,
			"x": 413,
			"y": 184
		},
		"znsce7NGMYeMTovvpWul32g06nWqNA3m": {
			"height": 60,
			"title": "sequence",
			"width": 143,
			"x": 212,
			"y": 8
		}
	},
	"roles": [ {
		"categories": [],
		"name": "Role 0"
	} ],
	"root": {
		"children": [ {
			"children": [ {
				"children": [],
				"id": "kpDl130Q9FAJ99ybT41UC8gFZYL1viEu",
				"nodeType": "luaCommand",
				"parameters": [ {
					"name": "var",
					"value": "count1"
				}, {
					"name": "value",
					"value": "#units * 1"
				}, {
					"name": "scriptName",
					"value": "store"
				} ],
				"scriptName": "store"
			}, {
				"children": [],
				"id": "6ifzcEss5bPRUTtPW4zNgT3sfue2NX6z",
				"nodeType": "reference",
				"parameters": [ {
					"name": "behaviourName",
					"value": "peter_guba_project_1.selectTestSubtree"
				} ],
				"referenceInputs": [],
				"referenceOutputs": []
			}, {
				"children": [],
				"id": "bV8RZdtUAoLUoqxb0wUSfN2mEgRxdkde",
				"nodeType": "luaCommand",
				"parameters": [ {
					"name": "var",
					"value": "count2"
				}, {
					"name": "value",
					"value": "#units"
				}, {
					"name": "scriptName",
					"value": "store"
				} ],
				"scriptName": "store"
			} ],
			"id": "eRtAvjGmQz78gnZuLPVnvPECxjEzRNp6",
			"nodeType": "sequence",
			"parameters": []
		} ],
		"id": "znsce7NGMYeMTovvpWul32g06nWqNA3m",
		"nodeType": "sequence",
		"parameters": []
	}
}