{
	"additionalNodes": [],
	"additionalParameters": {
		"root": {
			"height": 88,
			"width": 180
		}
	},
	"inputs": [],
	"outputs": [],
	"properties": {
		"51xgNQ1nKtKdwpOmjMhAeqKu4EwSOYaf": {
			"height": 94,
			"title": "store",
			"width": 231,
			"x": 431,
			"y": -86
		},
		"OMnDABaorcemlSCqlVzJzKYQlBMjjuQp": {
			"height": 92,
			"title": "store",
			"width": 131,
			"x": 440,
			"y": 102
		},
		"S8YxdPseayiwuSJadjPJKN1GNipc3BC3": {
			"height": 72,
			"title": "peter_guba_project_1.SelectUnit",
			"width": 269,
			"x": 430,
			"y": 9
		},
		"uCgzkxtlSSAhBaPtakg3SuL37UV2FYI6": {
			"height": 60,
			"title": "sequence",
			"width": 143,
			"x": 231,
			"y": 6
		}
	},
	"roles": [ {
		"categories": [],
		"name": "Role 0"
	} ],
	"root": {
		"children": [ {
			"children": [],
			"id": "51xgNQ1nKtKdwpOmjMhAeqKu4EwSOYaf",
			"nodeType": "luaCommand",
			"parameters": [ {
				"name": "var",
				"value": "u"
			}, {
				"name": "value",
				"value": "GetUnitForSelectTest()"
			}, {
				"name": "scriptName",
				"value": "store"
			} ],
			"scriptName": "store"
		}, {
			"children": [],
			"id": "S8YxdPseayiwuSJadjPJKN1GNipc3BC3",
			"nodeType": "luaCommand",
			"parameters": [ {
				"name": "unitID",
				"value": "u"
			}, {
				"name": "scriptName",
				"value": "peter_guba_project_1.SelectUnit"
			} ],
			"scriptName": "peter_guba_project_1.SelectUnit"
		}, {
			"children": [],
			"id": "OMnDABaorcemlSCqlVzJzKYQlBMjjuQp",
			"nodeType": "luaCommand",
			"parameters": [ {
				"name": "var",
				"value": "count3"
			}, {
				"name": "value",
				"value": "#units"
			}, {
				"name": "scriptName",
				"value": "store"
			} ],
			"scriptName": "store"
		} ],
		"id": "uCgzkxtlSSAhBaPtakg3SuL37UV2FYI6",
		"nodeType": "sequence",
		"parameters": []
	}
}